Lecture Notes: Introduction to Data Science
…
geom_hex
hexagonal binning

We can include multiple geometric representations in a single plot, for example points and text, by adding (+) multiple geom_<representation> functions. Also, we can include mappings inside a geom_ call to map characteristics to attributes strictly for that specific representation. For example geom_point(mapping=aes(color=<attribute>)) maps color to some attribute only for the point representation specified by that call. Mappings given in the ggplot call apply to all representations added to the plot.

This cheat sheet is very handy: https://www.rstudio.com/wp-content/uploads/2015/03/ggplot2-cheatsheet.pdf

8.2 Frequently Used Plots

We will look comprehensively at data visualization in more detail later in the course, but for now will list a few common plots we use in data analysis and how they are created using ggplot. Let’s switch data frame to the mpg dataset for our examples:

mpg

## # A tibble: 234 x 11
##    manufacturer model    displ  year   cyl trans   drv     cty   hwy fl   
##    <chr>        <chr>    <dbl> <int> <int> <chr>   <chr> <int> <int> <chr>
##  1 audi         a4        1.80  1999     4 auto(l… f        18    29 p    
##  2 audi         a4        1.80  1999     4 manual… f        21    29 p    
##  3 audi         a4        2.00  2008     4 manual… f        20    31 p    
##  4 audi         a4        2.00  2008     4 auto(a… f        21    30 p    
##  5 audi         a4        2.80  1999     6 auto(l… f        16    26 p    
##  6 audi         a4        2.80  1999     6 manual… f        18    26 p    
##  7 audi         a4        3.10  2008     6 auto(a… f        18    27 p    
##  8 audi         a4 quat…  1.80  1999     4 manual… 4        18    26 p    
##  9 audi         a4 quat…  1.80  1999     4 auto(l… 4        16    25 p    
## 10 audi         a4 quat…  2.00  2008     4 manual… 4        20    28 p    
## # ... with 224 more rows, and 1 more variable: class <chr>
…
