Lecture Notes: Introduction to Data Science
…
            Lecture Notes: Introduction to Data Science

23 EDA: Handling Missing Data

We can now move on to a very important aspect of data preparation and transformation: how to deal with missing data? By missing data we mean values that are unrecorded, unknown or unspecified in a dataset. We saw an example of this when we looked at the tidy unit. Here is the tidy weather dataset again:

## # A tibble: 22 x 35
##    id       year month element    d1    d2    d3    d4    d5    d6    d7
##    <chr>   <int> <int> <chr>   <dbl> <dbl> <dbl> <dbl> <dbl> <dbl> <dbl>
##  1 MX17004  2010     1 tmax       NA  NA    NA      NA  NA      NA    NA
##  2 MX17004  2010     1 tmin       NA  NA    NA      NA  NA      NA    NA
##  3 MX17004  2010     2 tmax       NA  27.3  24.1    NA  NA      NA    NA
##  4 MX17004  2010     2 tmin       NA  14.4  14.4    NA  NA      NA    NA
##  5 MX17004  2010     3 tmax       NA  NA    NA      NA  32.1    NA    NA
##  6 MX17004  2010     3 tmin       NA  NA    NA      NA  14.2    NA    NA
##  7 MX17004  2010     4 tmax       NA  NA    NA      NA  NA      NA    NA
##  8 MX17004  2010     4 tmin       NA  NA    NA      NA  NA      NA    NA
##  9 MX17004  2010     5 tmax       NA  NA    NA      NA  NA      NA    NA
## 10 MX17004  2010     5 tmin       NA  NA    NA      NA  NA      NA    NA
## # ... with 12 more rows, and 24 more variables: d8 <dbl>, d9 <chr>,
## #   d10 <dbl>, d11 <dbl>, d12 <chr>, d13 <dbl>, d14 <dbl>, d15 <dbl>,
## #   d16 <dbl>, d17 <dbl>, d18 <chr>, d19 <chr>, d20 <chr>, d21 <chr>,
## #   d22 <chr>, d23 <dbl>, d24 <chr>, d25 <dbl>, d26 <dbl>, d27 <dbl>,
## #   d28 <dbl>, d29 <dbl>, d30 <dbl>, d31 <dbl>

And the result of tidying this dataset:

tidy_weather <- weather %>%
  gather(day, temp, d1:d31) %>%
  spread(element, temp)
tidy_weather

## # A tibble: 341 x 6
##    id       year month day   tmax  tmin 
##    <chr>   <int> <int> <chr> <chr> <chr>
##  1 MX17004  2010     1 d1    <NA>  <NA> 
##  2 MX17004  2010     1 d10   <NA>  <NA> 
##  3 MX17004  2010     1 d11   <NA>  <NA> 
##  4 MX17004  2010     1 d12   <NA>  <NA> 
##  5 MX17004  2010     1 d13   <NA>  <NA> 
##  6 MX17004  2010     1 d14   <NA>  <NA> 
##  7 MX17004  2010     1 d15   <NA>  <NA> 
##  8 MX17004  2010     1 d16   <NA>  <NA> 
##  9 MX17004  2010     1 d17   <NA>  <NA> 
## 10 MX17004  2010     1 d18   <NA>  <NA> 
## # ... with 331 more rows

In this dataset, temperature observations coded as NA are considered missing. Now, we can imagine that either the measurement failed in a specific day for a specific weather station, or that certain stations only measure temperatures on certain days of the month. Knowing which of these applies can change how we approach this missing data. As you can see, how to treat missing data depends highly on how the data was obtained, and the more you know about a dataset, the better decision you can make.

In general, the central question with missing data is: Should we remove observations with missing values, or should we impute missing values? This also relates to the difference between values that are missing at random vs. values that are missing systematically. In the weather example above, the first case (of failed measurements) could be thought of as missing at random, and the second case as missing systematically.

Data that is missing systematically can significantly bias an analysis. For example: Suppose we want to predict how sick someone is from test result. If doctors do not carry out the test because a patient is too sick, then the fact test is missing is a great predictor of how sick the patient is.

So in general, the first step when dealing with missing data is to understand why and how data may be missing. I.e., talk to collaborator, or person who created the dataset. Once you know that, if a relatively small fraction of observations contain have missing values, then it may be safe to remove observations.

tidy_weather_nomissing <- tidy_weather %>%
  tidyr::drop_na(tmax, tmin)
tidy_weather_nomissing

## # A tibble: 33 x 6
##    id       year month day   tmax  tmin 
##    <chr>   <int> <int> <chr> <chr> <chr>
##  1 MX17004  2010     1 d30   27.8  14.5 
##  2 MX17004  2010     2 d11   29.7  13.4 
##  3 MX17004  2010     2 d2    27.3  14.4 
##  4 MX17004  2010     2 d23   29.9  10.7 
##  5 MX17004  2010     2 d3    24.1  14.4 
##  6 MX17004  2010     3 d10   34.5  16.8 
##  7 MX17004  2010     3 d16   31.1  17.6 
##  8 MX17004  2010     3 d5    32.1  14.2 
##  9 MX17004  2010     4 d27   36.3  16.7 
## 10 MX17004  2010     5 d27   33.2  18.2 
## # ... with 23 more rows

23.0.1 Dealing with data missing at random

In the case of categorical variables, a useful approach is to encode missing as a new category and include that in subsequent modeling.

tb <- read_csv(file.path("data", "tb.csv"))
tidy_tb <- tb %>%
  gather(demo, n, -iso2, -year)  %>%
  separate(demo, c("sex", "age"), sep=1)

tidy_tb %>%
  tidyr::replace_na(list(iso2="missing"))

## # A tibble: 115,380 x 5
##    iso2   year sex   age       n
##    <chr> <int> <chr> <chr> <int>
##  1 AD     1989 m     04       NA
##  2 AD     1990 m     04       NA
##  3 AD     1991 m     04       NA
##  4 AD     1992 m     04       NA
##  5 AD     1993 m     04       NA
##  6 AD     1994 m     04       NA
##  7 AD     1996 m     04       NA
##  8 AD     1997 m     04       NA
##  9 AD     1998 m     04       NA
## 10 AD     1999 m     04       NA
## # ... with 115,370 more rows

In the case of numeric values, we can use a simple method for imputation where we replace missing values for a variable with, for instance, the mean of non-missing values

flights %>%
  tidyr::replace_na(list(dep_delay=mean(.$dep_delay, na.rm=TRUE)))

## # A tibble: 336,776 x 19
##     year month   day dep_time sched_dep_time dep_delay arr_time
##    <int> <int> <int>    <int>          <int>     <dbl>    <int>
##  1  2013     1     1      517            515      2.00      830
##  2  2013     1     1      533            529      4.00      850
##  3  2013     1     1      542            540      2.00      923
##  4  2013     1     1      544            545     -1.00     1004
##  5  2013     1     1      554            600     -6.00      812
##  6  2013     1     1      554            558     -4.00      740
##  7  2013     1     1      555            600     -5.00      913
##  8  2013     1     1      557            600     -3.00      709
##  9  2013     1     1      557            600     -3.00      838
## 10  2013     1     1      558            600     -2.00      753
## # ... with 336,766 more rows, and 12 more variables: sched_arr_time <int>,
## #   arr_delay <dbl>, carrier <chr>, flight <int>, tailnum <chr>,
## #   origin <chr>, dest <chr>, air_time <dbl>, distance <dbl>, hour <dbl>,
## #   minute <dbl>, time_hour <dttm>

A more complex method is to replace missing values for a variable predicting from other variables when variables are related (we will see linear regression using the lm and predict functions later on)

dep_delay_fit <- flights %>% lm(dep_delay~origin, data=.)

# use average delay conditioned on origin airport
flights %>%
  modelr::add_predictions(dep_delay_fit, var="pred_delay") %>%
  mutate(dep_delay_fixed = 
           ifelse(!is.na(dep_delay), dep_delay, 
                  pred_delay)) %>%
  select(origin, dest, dep_delay, dep_delay_fixed) %>%
  filter(is.na(dep_delay))

## # A tibble: 8,255 x 4
##    origin dest  dep_delay dep_delay_fixed
##    <chr>  <chr>     <dbl>           <dbl>
##  1 EWR    RDU          NA            15.1
##  2 LGA    DFW          NA            10.3
##  3 LGA    MIA          NA            10.3
##  4 JFK    FLL          NA            12.1
##  5 EWR    CVG          NA            15.1
##  6 EWR    PIT          NA            15.1
##  7 EWR    MHT          NA            15.1
##  8 EWR    ATL          NA            15.1
##  9 EWR    IND          NA            15.1
## 10 JFK    LAX          NA            12.1
## # ... with 8,245 more rows

In either case, a common approach is to add an additional indicator variable stating if numeric missing value was imputed

flights %>%
  mutate(dep_delay_missing = is.na(dep_delay))

## # A tibble: 336,776 x 20
##     year month   day dep_time sched_dep_time dep_delay arr_time
##    <int> <int> <int>    <int>          <int>     <dbl>    <int>
##  1  2013     1     1      517            515      2.00      830
##  2  2013     1     1      533            529      4.00      850
##  3  2013     1     1      542            540      2.00      923
##  4  2013     1     1      544            545     -1.00     1004
##  5  2013     1     1      554            600     -6.00      812
##  6  2013     1     1      554            558     -4.00      740
##  7  2013     1     1      555            600     -5.00      913
##  8  2013     1     1      557            600     -3.00      709
##  9  2013     1     1      557            600     -3.00      838
## 10  2013     1     1      558            600     -2.00      753
## # ... with 336,766 more rows, and 13 more variables: sched_arr_time <int>,
## #   arr_delay <dbl>, carrier <chr>, flight <int>, tailnum <chr>,
## #   origin <chr>, dest <chr>, air_time <dbl>, distance <dbl>, hour <dbl>,
## #   minute <dbl>, time_hour <dttm>, dep_delay_missing <lgl>
…
