Lecture Notes: Introduction to Data Science
…
I’m going to do an analysis of Baltimore crime to guide our discussion of R. We’ll use data downloaded from Baltimore City’s awesome open data site (this was downloaded a couple of years ago so if you download now, you will get different results).

The repository for this particular data is here. https://data.baltimorecity.gov/Crime/BPD-Arrests/3i3v-ibrt

5.2 Getting data

We’ve prepared the data previously into a comma-separated value file (.csv file): each line contains attribute values (separated by commas) describing arrests in the City of Baltimore. The read_csv command is part of the readr R package and allows you to read a dataset stored in a csv file. This function is extremely versatile, and you can read more about it by using the standard help system in R: ?read_csv. The result of running calling this function is the data itself, so, by running the function in the console, the result of the function is printed.

To make use of this dataset we want to assign the result of calling read_csv (i.e., the dataset) to a variable:

library(tidyverse)
arrest_tab <- read_csv("data/BPD_Arrests.csv")
arrest_tab

## # A tibble: 104,528 x 15
##      arrest   age race  sex   arrestDate arrestTime arrestLocation      
##       <int> <int> <chr> <chr> <chr>      <time>     <chr>               
##  1 11126858    23 B     M     01/01/2011 00'00"     <NA>                
##  2 11127013    37 B     M     01/01/2011 01'00"     2000 Wilkens Ave    
##  3 11126887    46 B     M     01/01/2011 01'00"     2800 Mayfield Ave   
##  4 11126873    50 B     M     01/01/2011 04'00"     2100 Ashburton St   
##  5 11126968    33 B     M     01/01/2011 05'00"     4000 Wilsby Ave     
##  6 11127041    41 B     M     01/01/2011 05'00"     2900 Spellman Rd    
##  7 11126932    29 B     M     01/01/2011 05'00"     800 N Monroe St     
##  8 11126940    20 W     M     01/01/2011 05'00"     5200 Moravia Rd     
##  9 11127051    24 B     M     01/01/2011 07'00"     2400 Gainsdbourgh Ct
## 10 11127018    53 B     M     01/01/2011 15'00"     3300 Woodland Ave   
## # ... with 104,518 more rows, and 8 more variables: incidentOffense <chr>,
## #   incidentLocation <chr>, charge <chr>, chargeDescription <chr>,
## #   district <chr>, post <int>, neighborhood <chr>, `Location 1` <chr>
…
