Lecture Notes: Introduction to Data Science
…
Let’s create a data frame containing only the age, sex and district attributes

select(arrest_tab, age, sex, district)

## # A tibble: 104,528 x 3
##      age sex   district    
##    <int> <chr> <chr>       
##  1    23 M     <NA>        
##  2    37 M     SOUTHERN    
##  3    46 M     NORTHEASTERN
##  4    50 M     WESTERN     
##  5    33 M     NORTHERN    
##  6    41 M     SOUTHERN    
##  7    29 M     WESTERN     
##  8    20 M     NORTHEASTERN
##  9    24 M     <NA>        
## 10    53 M     NORTHWESTERN
## # ... with 104,518 more rows
…
