Lecture Notes: Introduction to Data Science
…
I’m going to do an analysis of Baltimore crime to guide our discussion of R. We’ll use data downloaded from Baltimore City’s awesome open data site (this was downloaded a couple of years ago so if you download now, you will get different results).

The repository for this particular data is here. https://data.baltimorecity.gov/Crime/BPD-Arrests/3i3v-ibrt

5.2 Getting data

We’ve prepared the data previously into a comma-separated value file (.csv file): each line contains attribute values (separated by commas) describing arrests in the City of Baltimore. The read_csv command is part of the readr R package and allows you to read a dataset stored in a csv file. This function is extremely versatile, and you can read more about it by using the standard help system in R: ?read_csv. The result of running calling this function is the data itself, so, by running the function in the console, the result of the function is printed.

To make use of this dataset we want to assign the result of calling read_csv (i.e., the dataset) to a variable:

library(tidyverse)
arrest_tab <- read_csv("data/BPD_Arrests.csv")
arrest_tab

## # A tibble: 104,528 x 15
##      arrest   age race  sex   arrestDate arrestTime arrestLocation      
##       <int> <int> <chr> <chr> <chr>      <time>     <chr>               
##  1 11126858    23 B     M     01/01/2011 00'00"     <NA>                
##  2 11127013    37 B     M     01/01/2011 01'00"     2000 Wilkens Ave    
##  3 11126887    46 B     M     01/01/2011 01'00"     2800 Mayfield Ave   
##  4 11126873    50 B     M     01/01/2011 04'00"     2100 Ashburton St   
##  5 11126968    33 B     M     01/01/2011 05'00"     4000 Wilsby Ave     
##  6 11127041    41 B     M     01/01/2011 05'00"     2900 Spellman Rd    
##  7 11126932    29 B     M     01/01/2011 05'00"     800 N Monroe St     
##  8 11126940    20 W     M     01/01/2011 05'00"     5200 Moravia Rd     
##  9 11127051    24 B     M     01/01/2011 07'00"     2400 Gainsdbourgh Ct
## 10 11127018    53 B     M     01/01/2011 15'00"     3300 Woodland Ave   
## # ... with 104,518 more rows, and 8 more variables: incidentOffense <chr>,
## #   incidentLocation <chr>, charge <chr>, chargeDescription <chr>,
## #   district <chr>, post <int>, neighborhood <chr>, `Location 1` <chr>
…
Let’s create a data frame containing only the age, sex and district attributes

select(arrest_tab, age, sex, district)

## # A tibble: 104,528 x 3
##      age sex   district    
##    <int> <chr> <chr>       
##  1    23 M     <NA>        
##  2    37 M     SOUTHERN    
##  3    46 M     NORTHEASTERN
##  4    50 M     WESTERN     
##  5    33 M     NORTHERN    
##  6    41 M     SOUTHERN    
##  7    29 M     WESTERN     
##  8    20 M     NORTHEASTERN
##  9    24 M     <NA>        
## 10    53 M     NORTHWESTERN
## # ... with 104,518 more rows

The first argument to the select function is the data frame we want to operate on, the remaining arguments describe the attributes we want to include in the resulting data frame.

Note a few other things:

The first argument to select is a data frame, and the value returned by select is also a data frame

As always you can learn more about the function using ?select

Attribute descriptor arguments can be fairly sophisticated. For example, we can use positive integers to indicate attribute (column) indices:

select(arrest_tab, 1, 3, 4)

## # A tibble: 104,528 x 3
##      arrest race  sex  
##       <int> <chr> <chr>
##  1 11126858 B     M    
##  2 11127013 B     M    
##  3 11126887 B     M    
##  4 11126873 B     M    
##  5 11126968 B     M    
##  6 11127041 B     M    
##  7 11126932 B     M    
##  8 11126940 W     M    
##  9 11127051 B     M    
## 10 11127018 B     M    
## # ... with 104,518 more rows

R includes a useful operator to describe ranges. E.g., 1:5 would be attributes 1 through 5:

select(arrest_tab, 1:5)

## # A tibble: 104,528 x 5
##      arrest   age race  sex   arrestDate
##       <int> <int> <chr> <chr> <chr>     
##  1 11126858    23 B     M     01/01/2011
##  2 11127013    37 B     M     01/01/2011
##  3 11126887    46 B     M     01/01/2011
##  4 11126873    50 B     M     01/01/2011
##  5 11126968    33 B     M     01/01/2011
##  6 11127041    41 B     M     01/01/2011
##  7 11126932    29 B     M     01/01/2011
##  8 11126940    20 W     M     01/01/2011
##  9 11127051    24 B     M     01/01/2011
## 10 11127018    53 B     M     01/01/2011
## # ... with 104,518 more rows

We can also use other helper functions to create attribute descriptors. For example, to choose all attributes that begin with the letter a we can the starts_with function which uses partial string matching:

select(arrest_tab, starts_with("a"))

## # A tibble: 104,528 x 5
##      arrest   age arrestDate arrestTime arrestLocation      
##       <int> <int> <chr>      <time>     <chr>               
##  1 11126858    23 01/01/2011 00'00"     <NA>                
##  2 11127013    37 01/01/2011 01'00"     2000 Wilkens Ave    
##  3 11126887    46 01/01/2011 01'00"     2800 Mayfield Ave   
##  4 11126873    50 01/01/2011 04'00"     2100 Ashburton St   
##  5 11126968    33 01/01/2011 05'00"     4000 Wilsby Ave     
##  6 11127041    41 01/01/2011 05'00"     2900 Spellman Rd    
##  7 11126932    29 01/01/2011 05'00"     800 N Monroe St     
##  8 11126940    20 01/01/2011 05'00"     5200 Moravia Rd     
##  9 11127051    24 01/01/2011 07'00"     2400 Gainsdbourgh Ct
## 10 11127018    53 01/01/2011 15'00"     3300 Woodland Ave   
## # ... with 104,518 more rows

We can also use the attribute descriptor arguments to drop attributes. For instance using descriptor -age returns the arrest data frame with all but the age attribute included:

select(arrest_tab, -age)

## # A tibble: 104,528 x 14
##    arrest race  sex   arrestDate arrestTime arrestLocation incidentOffense
##     <int> <chr> <chr> <chr>      <time>     <chr>          <chr>          
##  1 1.11e⁷ B     M     01/01/2011 00'00"     <NA>           Unknown Offense
##  2 1.11e⁷ B     M     01/01/2011 01'00"     2000 Wilkens … 79-Other       
##  3 1.11e⁷ B     M     01/01/2011 01'00"     2800 Mayfield… Unknown Offense
##  4 1.11e⁷ B     M     01/01/2011 04'00"     2100 Ashburto… 79-Other       
##  5 1.11e⁷ B     M     01/01/2011 05'00"     4000 Wilsby A… Unknown Offense
##  6 1.11e⁷ B     M     01/01/2011 05'00"     2900 Spellman… 81-Recovered P…
##  7 1.11e⁷ B     M     01/01/2011 05'00"     800 N Monroe … 79-Other       
##  8 1.11e⁷ W     M     01/01/2011 05'00"     5200 Moravia … Unknown Offense
##  9 1.11e⁷ B     M     01/01/2011 07'00"     2400 Gainsdbo… 54-Armed Person
## 10 1.11e⁷ B     M     01/01/2011 15'00"     3300 Woodland… 54-Armed Person
## # ... with 104,518 more rows, and 7 more variables: incidentLocation
## #   <chr>, charge <chr>, chargeDescription <chr>, district <chr>, post
## #   <int>, neighborhood <chr>, `Location 1` <chr>

5.3.2 rename

To improve interpretability during an analysis we may want to rename attributes. We use the rename function for this:

rename(arrest_tab, arrest_date=arrestDate)

## # A tibble: 104,528 x 15
##      arrest   age race  sex   arrest_date arrestTime arrestLocation      
##       <int> <int> <chr> <chr> <chr>       <time>     <chr>               
##  1 11126858    23 B     M     01/01/2011  00'00"     <NA>                
##  2 11127013    37 B     M     01/01/2011  01'00"     2000 Wilkens Ave    
##  3 11126887    46 B     M     01/01/2011  01'00"     2800 Mayfield Ave   
##  4 11126873    50 B     M     01/01/2011  04'00"     2100 Ashburton St   
##  5 11126968    33 B     M     01/01/2011  05'00"     4000 Wilsby Ave     
##  6 11127041    41 B     M     01/01/2011  05'00"     2900 Spellman Rd    
##  7 11126932    29 B     M     01/01/2011  05'00"     800 N Monroe St     
##  8 11126940    20 W     M     01/01/2011  05'00"     5200 Moravia Rd     
##  9 11127051    24 B     M     01/01/2011  07'00"     2400 Gainsdbourgh Ct
## 10 11127018    53 B     M     01/01/2011  15'00"     3300 Woodland Ave   
## # ... with 104,518 more rows, and 8 more variables: incidentOffense <chr>,
## #   incidentLocation <chr>, charge <chr>, chargeDescription <chr>,
## #   district <chr>, post <int>, neighborhood <chr>, `Location 1` <chr>

Like select, the first argument to the function is the data frame we are operating on. The remaining arguemnts specify attributes to rename and the name they will have in the resulting data frame. Note that arguments in this case are named (have the form lhs=rhs). We can have selection and renaming by using named arguments in select:

select(arrest_tab, age, sex, arrest_date=arrestDate)

## # A tibble: 104,528 x 3
##      age sex   arrest_date
##    <int> <chr> <chr>      
##  1    23 M     01/01/2011 
##  2    37 M     01/01/2011 
##  3    46 M     01/01/2011 
##  4    50 M     01/01/2011 
##  5    33 M     01/01/2011 
##  6    41 M     01/01/2011 
##  7    29 M     01/01/2011 
##  8    20 M     01/01/2011 
##  9    24 M     01/01/2011 
## 10    53 M     01/01/2011 
## # ... with 104,518 more rows
…
