18 Text and Dates | Lecture Notes: Introduction to Data Science
…
18.1.3 Tools using regular expressions

Determine which strings match a pattern: str_detect: given a vector of strings, return TRUE for those that match a regular expression, FALSE otherwise

data(words)

print(head(words))

## [1] "a"        "able"     "about"    "absolute"
## [5] "accept"   "account"

data_frame(word=words, result=str_detect(words, "^[aeiou]")) %>% sample_n(30)

## # A tibble: 30 x 2
##    word     result
##    <chr>    <lgl> 
##  1 as       TRUE  
##  2 bottom   FALSE 
##  3 letter   FALSE 
##  4 here     FALSE 
##  5 thousand FALSE 
##  6 love     FALSE 
##  7 town     FALSE 
##  8 keep     FALSE 
##  9 actual   TRUE  
## 10 front    FALSE 
## # … with 20 more rows
…
Here’s a simple example using Jane Austen text

library(janeaustenr)
library(tidyverse)

original_books <- austen_books() %>%
  group_by(book) %>%
  mutate(linenumber = row_number(),
         chapter = cumsum(str_detect(text, regex("^chapter [\\divxlc]", ignore_case=TRUE)))) %>%
  ungroup()

original_books

## # A tibble: 73,422 x 4
##    text           book         linenumber chapter
##    <chr>          <fct>             <int>   <int>
##  1 "SENSE AND SE… Sense & Sen…          1       0
##  2 ""             Sense & Sen…          2       0
##  3 "by Jane Aust… Sense & Sen…          3       0
##  4 ""             Sense & Sen…          4       0
##  5 "(1811)"       Sense & Sen…          5       0
##  6 ""             Sense & Sen…          6       0
##  7 ""             Sense & Sen…          7       0
##  8 ""             Sense & Sen…          8       0
##  9 ""             Sense & Sen…          9       0
## 10 "CHAPTER 1"    Sense & Sen…         10       1
## # … with 73,412 more rows

Let’s re-structure it as a one-token-per-row column using the unnest_tokens function in the tidytext package

library(tidytext)

tidy_books <- original_books %>%
  unnest_tokens(word, text)
tidy_books

## # A tibble: 725,055 x 4
##    book              linenumber chapter word     
##    <fct>                  <int>   <int> <chr>    
##  1 Sense & Sensibil…          1       0 sense    
##  2 Sense & Sensibil…          1       0 and      
##  3 Sense & Sensibil…          1       0 sensibil…
##  4 Sense & Sensibil…          3       0 by       
##  5 Sense & Sensibil…          3       0 jane     
##  6 Sense & Sensibil…          3       0 austen   
##  7 Sense & Sensibil…          5       0 1811     
##  8 Sense & Sensibil…         10       1 chapter  
##  9 Sense & Sensibil…         10       1 1        
## 10 Sense & Sensibil…         13       1 the      
## # … with 725,045 more rows

Let’s remove stop words from the data frame

data(stop_words)

tidy_books <- tidy_books %>%
  anti_join(stop_words, by="word")

tidy_books

## # A tibble: 217,609 x 4
##    book              linenumber chapter word     
##    <fct>                  <int>   <int> <chr>    
##  1 Sense & Sensibil…          1       0 sense    
##  2 Sense & Sensibil…          1       0 sensibil…
##  3 Sense & Sensibil…          3       0 jane     
##  4 Sense & Sensibil…          3       0 austen   
##  5 Sense & Sensibil…          5       0 1811     
##  6 Sense & Sensibil…         10       1 chapter  
##  7 Sense & Sensibil…         10       1 1        
##  8 Sense & Sensibil…         13       1 family   
##  9 Sense & Sensibil…         13       1 dashwood 
## 10 Sense & Sensibil…         13       1 settled  
## # … with 217,599 more rows
…
They can also return month and day of the week names, abbreviated, as ordered factors

month(datetime, label=TRUE)

## [1] Jul
## 12 Levels: Jan < Feb < Mar < Apr < ... < Dec

We can also create attributes of type datetime from string attributes. Here’s an example using the flights dataset

flights_with_dt <- flights %>%
  mutate(dep_dt=make_datetime(year, month, day, dep_time %/% 100, dep_time %% 100)) %>%
  dplyr::select(year, month, day, dep_time, dep_dt)
flights_with_dt

## # A tibble: 336,776 x 5
##     year month   day dep_time dep_dt             
##    <int> <int> <int>    <int> <dttm>             
##  1  2013     1     1      517 2013-01-01 05:17:00
##  2  2013     1     1      533 2013-01-01 05:33:00
##  3  2013     1     1      542 2013-01-01 05:42:00
##  4  2013     1     1      544 2013-01-01 05:44:00
##  5  2013     1     1      554 2013-01-01 05:54:00
##  6  2013     1     1      554 2013-01-01 05:54:00
##  7  2013     1     1      555 2013-01-01 05:55:00
##  8  2013     1     1      557 2013-01-01 05:57:00
##  9  2013     1     1      557 2013-01-01 05:57:00
## 10  2013     1     1      558 2013-01-01 05:58:00
## # … with 336,766 more rows
…
