Lecture Notes: Data Science using R for Humanities and Social Science
…
This table has the number of survey respondents of a specific religion that report their income within some range. A tidy version of this table would consider the variables of each observation to be religion, income, frequency where frequency has the number of respondents for each religion and income range. The function to use in the tidyr package is gather:

tidy_pew <- gather(pew, income, frequency, -religion)
tidy_pew

## # A tibble: 180 x 3
##                   religion income frequency
##                      <chr>  <chr>     <int>
##  1                Agnostic  <$10k        27
##  2                 Atheist  <$10k        12
##  3                Buddhist  <$10k        27
##  4                Catholic  <$10k       418
##  5      Don’t know/refused  <$10k        15
##  6        Evangelical Prot  <$10k       575
##  7                   Hindu  <$10k         1
##  8 Historically Black Prot  <$10k       228
##  9       Jehovah's Witness  <$10k        20
## 10                  Jewish  <$10k        19
## # ... with 170 more rows
…
## See spec(...) for full column specifications.

billboard

## # A tibble: 317 x 81
##     year         artist                   track     time date.entered
##    <int>          <chr>                   <chr>   <time>       <date>
##  1  2000          2 Pac Baby Don't Cry (Keep... 04:22:00   2000-02-26
##  2  2000        2Ge+her The Hardest Part Of ... 03:15:00   2000-09-02
##  3  2000   3 Doors Down              Kryptonite 03:53:00   2000-04-08
##  4  2000   3 Doors Down                   Loser 04:24:00   2000-10-21
##  5  2000       504 Boyz           Wobble Wobble 03:35:00   2000-04-15
##  6  2000           98^0 Give Me Just One Nig... 03:24:00   2000-08-19
##  7  2000        A*Teens           Dancing Queen 03:44:00   2000-07-08
##  8  2000        Aaliyah           I Don't Wanna 04:15:00   2000-01-29
##  9  2000        Aaliyah               Try Again 04:03:00   2000-03-18
## 10  2000 Adams, Yolanda           Open My Heart 05:30:00   2000-08-26
## # ... with 307 more rows, and 76 more variables: wk1 <int>, wk2 <int>,
## #   wk3 <int>, wk4 <int>, wk5 <int>, wk6 <int>, wk7 <int>, wk8 <int>,
## #   wk9 <int>, wk10 <int>, wk11 <int>, wk12 <int>, wk13 <int>, wk14 <int>,
## #   wk15 <int>, wk16 <int>, wk17 <int>, wk18 <int>, wk19 <int>,
## #   wk20 <int>, wk21 <int>, wk22 <int>, wk23 <int>, wk24 <int>,
## #   wk25 <int>, wk26 <int>, wk27 <int>, wk28 <int>, wk29 <int>,
## #   wk30 <int>, wk31 <int>, wk32 <int>, wk33 <int>, wk34 <int>,
## #   wk35 <int>, wk36 <int>, wk37 <int>, wk38 <int>, wk39 <int>,
## #   wk40 <int>, wk41 <int>, wk42 <int>, wk43 <int>, wk44 <int>,
…
The next problem we’ll see is the case when we see multiple variables in a single column. Consider the following dataset of tuberculosis cases:

tb <- read_csv(file.path(data_dir, "tb.csv"))

## Parsed with column specification:
## cols(
##   .default = col_integer(),
##   iso2 = col_character()
## )

## See spec(...) for full column specifications.

tb

## # A tibble: 5,769 x 22
##     iso2  year   m04  m514  m014 m1524 m2534 m3544 m4554 m5564   m65    mu
##    <chr> <int> <int> <int> <int> <int> <int> <int> <int> <int> <int> <int>
##  1    AD  1989    NA    NA    NA    NA    NA    NA    NA    NA    NA    NA
##  2    AD  1990    NA    NA    NA    NA    NA    NA    NA    NA    NA    NA
##  3    AD  1991    NA    NA    NA    NA    NA    NA    NA    NA    NA    NA
##  4    AD  1992    NA    NA    NA    NA    NA    NA    NA    NA    NA    NA
##  5    AD  1993    NA    NA    NA    NA    NA    NA    NA    NA    NA    NA
##  6    AD  1994    NA    NA    NA    NA    NA    NA    NA    NA    NA    NA
##  7    AD  1996    NA    NA     0     0     0     4     1     0     0    NA
##  8    AD  1997    NA    NA     0     0     1     2     2     1     6    NA
##  9    AD  1998    NA    NA     0     0     0     1     0     0     0    NA
## 10    AD  1999    NA    NA     0     0     0     1     1     0     0    NA
## # ... with 5,759 more rows, and 10 more variables: f04 <int>, f514 <int>,
## #   f014 <int>, f1524 <int>, f2534 <int>, f3544 <int>, f4554 <int>,
## #   f5564 <int>, f65 <int>, fu <int>

This table has a row for each year and strain of tuberculosis (given by the first two columns). The remaining columns state the number of cases for a given demographic. For example, m1524 corresponds to males between 15 and 24 years old, and f1524 are females age 15-24. As you can see each of these columns has two variables: sex and age.

Challenge: what else is untidy about this dataset?

So, we have to do two operations to tidy this table, first we need to use gather the tabulation columns into a demo and n columns (for demographic and number of cases):

tidy_tb <- gather(tb, demo, n, -iso2, -year)
tidy_tb

## # A tibble: 115,380 x 4
##     iso2  year  demo     n
##    <chr> <int> <chr> <int>
##  1    AD  1989   m04    NA
##  2    AD  1990   m04    NA
##  3    AD  1991   m04    NA
##  4    AD  1992   m04    NA
##  5    AD  1993   m04    NA
##  6    AD  1994   m04    NA
##  7    AD  1996   m04    NA
##  8    AD  1997   m04    NA
##  9    AD  1998   m04    NA
## 10    AD  1999   m04    NA
## # ... with 115,370 more rows

Next, we need to separate the values in the demo column into two variables sex and age

tidy_tb <- separate(tidy_tb, demo, c("sex", "age"), sep=1)
tidy_tb

## # A tibble: 115,380 x 5
##     iso2  year   sex   age     n
##  * <chr> <int> <chr> <chr> <int>
##  1    AD  1989     m    04    NA
##  2    AD  1990     m    04    NA
##  3    AD  1991     m    04    NA
##  4    AD  1992     m    04    NA
##  5    AD  1993     m    04    NA
##  6    AD  1994     m    04    NA
##  7    AD  1996     m    04    NA
##  8    AD  1997     m    04    NA
##  9    AD  1998     m    04    NA
## 10    AD  1999     m    04    NA
## # ... with 115,370 more rows

This calls the separate function on table tidy_db, separating the demo variable into variables sex and age by separating each value after the first character (that’s the sep argument).

We can put these two commands together in a pipeline:

tidy_tb <- tb %>% 
  gather(demo, n, -iso2, -year)  %>%
  separate(demo, c("sex", "age"), sep=1)
tidy_tb

## # A tibble: 115,380 x 5
##     iso2  year   sex   age     n
##  * <chr> <int> <chr> <chr> <int>
##  1    AD  1989     m    04    NA
##  2    AD  1990     m    04    NA
##  3    AD  1991     m    04    NA
##  4    AD  1992     m    04    NA
##  5    AD  1993     m    04    NA
##  6    AD  1994     m    04    NA
##  7    AD  1996     m    04    NA
##  8    AD  1997     m    04    NA
##  9    AD  1998     m    04    NA
## 10    AD  1999     m    04    NA
## # ... with 115,370 more rows
…
## See spec(...) for full column specifications.

weather

## # A tibble: 22 x 35
##         id  year month element    d1    d2    d3    d4    d5    d6    d7
##      <chr> <int> <int>   <chr> <dbl> <dbl> <dbl> <dbl> <dbl> <dbl> <dbl>
##  1 MX17004  2010     1    tmax    NA    NA    NA    NA    NA    NA    NA
##  2 MX17004  2010     1    tmin    NA    NA    NA    NA    NA    NA    NA
##  3 MX17004  2010     2    tmax    NA  27.3  24.1    NA    NA    NA    NA
##  4 MX17004  2010     2    tmin    NA  14.4  14.4    NA    NA    NA    NA
##  5 MX17004  2010     3    tmax    NA    NA    NA    NA  32.1    NA    NA
##  6 MX17004  2010     3    tmin    NA    NA    NA    NA  14.2    NA    NA
##  7 MX17004  2010     4    tmax    NA    NA    NA    NA    NA    NA    NA
##  8 MX17004  2010     4    tmin    NA    NA    NA    NA    NA    NA    NA
##  9 MX17004  2010     5    tmax    NA    NA    NA    NA    NA    NA    NA
## 10 MX17004  2010     5    tmin    NA    NA    NA    NA    NA    NA    NA
## # ... with 12 more rows, and 24 more variables: d8 <dbl>, d9 <chr>,
## #   d10 <dbl>, d11 <dbl>, d12 <chr>, d13 <dbl>, d14 <dbl>, d15 <dbl>,
## #   d16 <dbl>, d17 <dbl>, d18 <chr>, d19 <chr>, d20 <chr>, d21 <chr>,
## #   d22 <chr>, d23 <dbl>, d24 <chr>, d25 <dbl>, d26 <dbl>, d27 <dbl>,
## #   d28 <dbl>, d29 <dbl>, d30 <dbl>, d31 <dbl>

So, we have two rows for each month, one with maximum daily temperature, one with minimum daily temperature, the columns starting with d correspond to the day in the where the measurements were made.

Challenge: How would a tidy version of this data look like?

weather %>%
  gather(day, value, d1:d31, na.rm=TRUE) %>%
  spread(element, value)

## # A tibble: 33 x 6
##         id  year month   day  tmax  tmin
##  *   <chr> <int> <int> <chr> <chr> <chr>
##  1 MX17004  2010     1   d30  27.8  14.5
##  2 MX17004  2010     2   d11  29.7  13.4
##  3 MX17004  2010     2    d2  27.3  14.4
##  4 MX17004  2010     2   d23  29.9  10.7
##  5 MX17004  2010     2    d3  24.1  14.4
##  6 MX17004  2010     3   d10  34.5  16.8
##  7 MX17004  2010     3   d16  31.1  17.6
##  8 MX17004  2010     3    d5  32.1  14.2
##  9 MX17004  2010     4   d27  36.3  16.7
## 10 MX17004  2010     5   d27  33.2  18.2
## # ... with 23 more rows

The new function we’ve used here is spread. It does the inverse of gather it spreads columns element and value into separate columns.

7.2.4 Multiple types in one table

Remember that an important aspect of tidy data is that it contains exactly one kind of observation in a single table. Let’s see the billboard example again after the gather operation we did before:

tidy_billboard <- billboard %>%
  gather(week, rank, wk1:wk76, na.rm=TRUE)
tidy_billboard

## # A tibble: 5,307 x 7
##     year         artist                   track     time date.entered
##  * <int>          <chr>                   <chr>   <time>       <date>
##  1  2000          2 Pac Baby Don't Cry (Keep... 04:22:00   2000-02-26
##  2  2000        2Ge+her The Hardest Part Of ... 03:15:00   2000-09-02
##  3  2000   3 Doors Down              Kryptonite 03:53:00   2000-04-08
##  4  2000   3 Doors Down                   Loser 04:24:00   2000-10-21
##  5  2000       504 Boyz           Wobble Wobble 03:35:00   2000-04-15
##  6  2000           98^0 Give Me Just One Nig... 03:24:00   2000-08-19
##  7  2000        A*Teens           Dancing Queen 03:44:00   2000-07-08
##  8  2000        Aaliyah           I Don't Wanna 04:15:00   2000-01-29
##  9  2000        Aaliyah               Try Again 04:03:00   2000-03-18
## 10  2000 Adams, Yolanda           Open My Heart 05:30:00   2000-08-26
## # ... with 5,297 more rows, and 2 more variables: week <chr>, rank <chr>

Let’s sort this table by track to see a problem with this table:

tidy_billboard <- tidy_billboard %>%
  arrange(track)
tidy_billboard

## # A tibble: 5,307 x 7
##     year artist                   track     time date.entered  week  rank
##    <int>  <chr>                   <chr>   <time>       <date> <chr> <chr>
##  1  2000  Nelly (Hot S**t) Country G... 04:17:00   2000-04-29   wk1   100
##  2  2000  Nelly (Hot S**t) Country G... 04:17:00   2000-04-29   wk2    99
##  3  2000  Nelly (Hot S**t) Country G... 04:17:00   2000-04-29   wk3    96
##  4  2000  Nelly (Hot S**t) Country G... 04:17:00   2000-04-29   wk4    76
##  5  2000  Nelly (Hot S**t) Country G... 04:17:00   2000-04-29   wk5    55
##  6  2000  Nelly (Hot S**t) Country G... 04:17:00   2000-04-29   wk6    37
##  7  2000  Nelly (Hot S**t) Country G... 04:17:00   2000-04-29   wk7    24
##  8  2000  Nelly (Hot S**t) Country G... 04:17:00   2000-04-29   wk8    24
##  9  2000  Nelly (Hot S**t) Country G... 04:17:00   2000-04-29   wk9    30
## 10  2000  Nelly (Hot S**t) Country G... 04:17:00   2000-04-29  wk10    36
## # ... with 5,297 more rows

We have a lot of repeated information in many of these rows (the artist, track name, year, title and date entered). The problem is that this table contains information about both tracks and rank in billboard. That’s two different kinds of observations that should belong in two different tables in a tidy dataset.

Let’s make a song table that only includes information about songs:

song <- tidy_billboard %>%
  select(artist, track, year, time, date.entered) %>%
  unique()
song

## # A tibble: 317 x 5
##           artist                   track  year     time date.entered
##            <chr>                   <chr> <int>   <time>       <date>
##  1         Nelly (Hot S**t) Country G...  2000 04:17:00   2000-04-29
##  2     Nu Flavor          3 Little Words  2000 03:54:00   2000-06-03
##  3  Jean, Wyclef                     911  2000 04:00:00   2000-10-07
##  4   Brock, Chad A Country Boy Can Su...  2000 03:54:00   2000-01-01
##  5  Clark, Terri       A Little Gasoline  2000 03:07:00   2000-12-16
##  6   Son By Four A Puro Dolor (Purest...  2000 03:30:00   2000-04-08
##  7 Carter, Aaron Aaron's Party (Come ...  2000 03:23:00   2000-08-26
##  8     Nine Days Absolutely (Story Of...  2000 03:09:00   2000-05-06
##  9    De La Soul               All Good?  2000 05:02:00   2000-12-23
## 10     Blink-182    All The Small Things  2000 02:52:00   1999-12-04
## # ... with 307 more rows

The unique function removes any duplicate rows in a table. That’s how we have a single row for each song.

Next, we would like to remove all the song information from the rank table. But we need to do it in a way that still remembers which song each ranking observation corresponds to. To do that, let’s first give each song an identifier that we can use to link songs and rankings. So, we can produce the final version of our song table like this:

song <- tidy_billboard %>%
  select(artist, track, year, time, date.entered) %>% 
  unique() %>%
  mutate(song_id = row_number())
song

## # A tibble: 317 x 6
##           artist                   track  year     time date.entered
##            <chr>                   <chr> <int>   <time>       <date>
##  1         Nelly (Hot S**t) Country G...  2000 04:17:00   2000-04-29
##  2     Nu Flavor          3 Little Words  2000 03:54:00   2000-06-03
##  3  Jean, Wyclef                     911  2000 04:00:00   2000-10-07
##  4   Brock, Chad A Country Boy Can Su...  2000 03:54:00   2000-01-01
##  5  Clark, Terri       A Little Gasoline  2000 03:07:00   2000-12-16
##  6   Son By Four A Puro Dolor (Purest...  2000 03:30:00   2000-04-08
##  7 Carter, Aaron Aaron's Party (Come ...  2000 03:23:00   2000-08-26
##  8     Nine Days Absolutely (Story Of...  2000 03:09:00   2000-05-06
##  9    De La Soul               All Good?  2000 05:02:00   2000-12-23
## 10     Blink-182    All The Small Things  2000 02:52:00   1999-12-04
## # ... with 307 more rows, and 1 more variables: song_id <int>

The mutate function adds a new column to the table, in this case with column name song_id and value the row number the song appears in the table (from the row_number column).

Now we can make a rank table, we combine the tidy billboard table with our new song table using a join (we’ll learn all about joins later). It checks the values on each row of the billboard table and looks for rows in the song table that have the exact same values, and makes a new row that combines the information from both tables.

tidy_billboard %>%
  left_join(song, c("artist", "year", "track", "time", "date.entered"))

## # A tibble: 5,307 x 8
##     year artist                   track     time date.entered  week  rank
##    <int>  <chr>                   <chr>   <time>       <date> <chr> <chr>
##  1  2000  Nelly (Hot S**t) Country G... 04:17:00   2000-04-29   wk1   100
##  2  2000  Nelly (Hot S**t) Country G... 04:17:00   2000-04-29   wk2    99
##  3  2000  Nelly (Hot S**t) Country G... 04:17:00   2000-04-29   wk3    96
##  4  2000  Nelly (Hot S**t) Country G... 04:17:00   2000-04-29   wk4    76
##  5  2000  Nelly (Hot S**t) Country G... 04:17:00   2000-04-29   wk5    55
##  6  2000  Nelly (Hot S**t) Country G... 04:17:00   2000-04-29   wk6    37
##  7  2000  Nelly (Hot S**t) Country G... 04:17:00   2000-04-29   wk7    24
##  8  2000  Nelly (Hot S**t) Country G... 04:17:00   2000-04-29   wk8    24
##  9  2000  Nelly (Hot S**t) Country G... 04:17:00   2000-04-29   wk9    30
## 10  2000  Nelly (Hot S**t) Country G... 04:17:00   2000-04-29  wk10    36
## # ... with 5,297 more rows, and 1 more variables: song_id <int>

That adds the song_id variable to the tidy_billboard table. So now we can remove the song information and only keep ranking information and the song_id.

rank <- tidy_billboard %>%
  left_join(song, c("artist", "year", "track", "time", "date.entered")) %>%
  select(song_id, week, rank)
rank

## # A tibble: 5,307 x 3
##    song_id  week  rank
##      <int> <chr> <chr>
##  1       1   wk1   100
##  2       1   wk2    99
##  3       1   wk3    96
##  4       1   wk4    76
##  5       1   wk5    55
##  6       1   wk6    37
##  7       1   wk7    24
##  8       1   wk8    24
##  9       1   wk9    30
## 10       1  wk10    36
## # ... with 5,297 more rows
…
