Missing Data
…
---
layout: true

## Handling Missing Data

---

We can now move on to a very important aspect of data preparation and transformation: how to deal with missing data? 

Values that are unrecorded, unknown or unspecified in a dataset. 

---

```
## # A tibble: 22 x 35
##    id     year month element    d1    d2    d3    d4    d5    d6    d7
##    <chr> <dbl> <dbl> <chr>   <dbl> <dbl> <dbl> <dbl> <dbl> <dbl> <dbl>
##  1 MX17…  2010     1 tmax       NA  NA    NA      NA  NA      NA    NA
##  2 MX17…  2010     1 tmin       NA  NA    NA      NA  NA      NA    NA
##  3 MX17…  2010     2 tmax       NA  27.3  24.1    NA  NA      NA    NA
##  4 MX17…  2010     2 tmin       NA  14.4  14.4    NA  NA      NA    NA
##  5 MX17…  2010     3 tmax       NA  NA    NA      NA  32.1    NA    NA
##  6 MX17…  2010     3 tmin       NA  NA    NA      NA  14.2    NA    NA
##  7 MX17…  2010     4 tmax       NA  NA    NA      NA  NA      NA    NA
##  8 MX17…  2010     4 tmin       NA  NA    NA      NA  NA      NA    NA
##  9 MX17…  2010     5 tmax       NA  NA    NA      NA  NA      NA    NA
## 10 MX17…  2010     5 tmin       NA  NA    NA      NA  NA      NA    NA
## # … with 12 more rows, and 24 more variables: d8 <dbl>, d9 <lgl>,
## #   d10 <dbl>, d11 <dbl>, d12 <lgl>, d13 <dbl>, d14 <dbl>, d15 <dbl>,
## #   d16 <dbl>, d17 <dbl>, d18 <lgl>, d19 <lgl>, d20 <lgl>, d21 <lgl>,
## #   d22 <lgl>, d23 <dbl>, d24 <lgl>, d25 <dbl>, d26 <dbl>, d27 <dbl>,
## #   d28 <dbl>, d29 <dbl>, d30 <dbl>, d31 <dbl>
```

```
## # A tibble: 341 x 6
##    id       year month day    tmax  tmin
##    <chr>   <dbl> <dbl> <chr> <dbl> <dbl>
##  1 MX17004  2010     1 d1       NA    NA
##  2 MX17004  2010     1 d10      NA    NA
##  3 MX17004  2010     1 d11      NA    NA
##  4 MX17004  2010     1 d12      NA    NA
##  5 MX17004  2010     1 d13      NA    NA
##  6 MX17004  2010     1 d14      NA    NA
##  7 MX17004  2010     1 d15      NA    NA
##  8 MX17004  2010     1 d16      NA    NA
##  9 MX17004  2010     1 d17      NA    NA
## 10 MX17004  2010     1 d18      NA    NA
## # … with 331 more rows
```
…
(MCAR) Not a lot of entities with missing data: 

.column[

```r
tidy_weather_nomissing <- 
  tidy_weather %>%
    tidyr::drop_na(tmax, tmin)
```
]

.column[

```
## # A tibble: 33 x 6
##    id       year month day    tmax  tmin
##    <chr>   <dbl> <dbl> <chr> <dbl> <dbl>
##  1 MX17004  2010     1 d30    27.8  14.5
##  2 MX17004  2010     2 d11    29.7  13.4
##  3 MX17004  2010     2 d2     27.3  14.4
##  4 MX17004  2010     2 d23    29.9  10.7
##  5 MX17004  2010     2 d3     24.1  14.4
##  6 MX17004  2010     3 d10    34.5  16.8
##  7 MX17004  2010     3 d16    31.1  17.6
##  8 MX17004  2010     3 d5     32.1  14.2
##  9 MX17004  2010     4 d27    36.3  16.7
## 10 MX17004  2010     5 d27    33.2  18.2
## # … with 23 more rows
```
…
