Operations
…
---
layout: true

## Principles: Basic Operations

Now that we have a data frame describing our data, let's learn a few fundamental operations we perform on data frames on almost any analysis. 

We divide these first set of operations into two groups: 

- operations on _attributes_ 
- operations on _entitites_. 

```
## # A tibble: 104,528 x 15
##    arrest   age race  sex   arrestDate arrestTime arrestLocation
##     <dbl> <dbl> <chr> <chr> <chr>      <time>     <chr>         
##  1 1.11e7    23 B     M     01/01/2011 00'00"     <NA>          
##  2 1.11e7    37 B     M     01/01/2011 01'00"     2000 Wilkens …
##  3 1.11e7    46 B     M     01/01/2011 01'00"     2800 Mayfield…
##  4 1.11e7    50 B     M     01/01/2011 04'00"     2100 Ashburto…
##  5 1.11e7    33 B     M     01/01/2011 05'00"     4000 Wilsby A…
##  6 1.11e7    41 B     M     01/01/2011 05'00"     2900 Spellman…
##  7 1.11e7    29 B     M     01/01/2011 05'00"     800 N Monroe …
##  8 1.11e7    20 W     M     01/01/2011 05'00"     5200 Moravia …
##  9 1.11e7    24 B     M     01/01/2011 07'00"     2400 Gainsdbo…
## 10 1.11e7    53 B     M     01/01/2011 15'00"     3300 Woodland…
## # … with 104,518 more rows, and 8 more variables: incidentOffense <chr>,
## #   incidentLocation <chr>, charge <chr>, chargeDescription <chr>,
## #   district <chr>, post <dbl>, neighborhood <chr>, `Location 1` <chr>
```
…
---

Let's create a data frame containing only the `age`, `sex` and `district` attributes

```r
select(arrest_tab, age, sex, district)
```

```
## # A tibble: 104,528 x 3
##      age sex   district    
##    <dbl> <chr> <chr>       
##  1    23 M     <NA>        
##  2    37 M     SOUTHERN    
##  3    46 M     NORTHEASTERN
##  4    50 M     WESTERN     
##  5    33 M     NORTHERN    
##  6    41 M     SOUTHERN    
##  7    29 M     WESTERN     
##  8    20 M     NORTHEASTERN
##  9    24 M     <NA>        
## 10    53 M     NORTHWESTERN
## # … with 104,518 more rows
```

The first argument to `select` is a data frame, and the value returned by `select` is also a data frame

---

We can use an operator to describe ranges. E.g., `1:5` would be attributes 1 through 5:

```r
select(arrest_tab, 1:5)
```

```
## # A tibble: 104,528 x 5
##      arrest   age race  sex   arrestDate
##       <dbl> <dbl> <chr> <chr> <chr>     
##  1 11126858    23 B     M     01/01/2011
##  2 11127013    37 B     M     01/01/2011
##  3 11126887    46 B     M     01/01/2011
##  4 11126873    50 B     M     01/01/2011
##  5 11126968    33 B     M     01/01/2011
##  6 11127041    41 B     M     01/01/2011
##  7 11126932    29 B     M     01/01/2011
##  8 11126940    20 W     M     01/01/2011
##  9 11127051    24 B     M     01/01/2011
## 10 11127018    53 B     M     01/01/2011
## # … with 104,518 more rows
```
…
---

To create general sequences of indices we would use the `seq` function. For example, to select entities in even positions we would use the following:

```r
slice(arrest_tab, seq(2, nrow(arrest_tab), by=2))
```

```
## # A tibble: 52,264 x 15
##    arrest   age race  sex   arrestDate arrestTime arrestLocation
##     <dbl> <dbl> <chr> <chr> <chr>      <time>     <chr>         
##  1 1.11e7    37 B     M     01/01/2011 01'00"     2000 Wilkens …
##  2 1.11e7    50 B     M     01/01/2011 04'00"     2100 Ashburto…
##  3 1.11e7    41 B     M     01/01/2011 05'00"     2900 Spellman…
##  4 1.11e7    20 W     M     01/01/2011 05'00"     5200 Moravia …
##  5 1.11e7    53 B     M     01/01/2011 15'00"     3300 Woodland…
##  6 1.11e7    25 B     M     01/01/2011 20'00"     2800 Violet A…
##  7 1.11e7    50 B     M     01/01/2011 40'00"     2600 Oswego A…
##  8 1.11e7    40 B     M     01/01/2011 40'00"     3900 Greenmou…
##  9 1.11e7    30 B     M     01/01/2011 40'00"     900 N Calhoun…
## 10 1.11e7    53 B     M     01/01/2011 40'00"     900 N Calhoun…
## # … with 52,254 more rows, and 8 more variables: incidentOffense <chr>,
## #   incidentLocation <chr>, charge <chr>, chargeDescription <chr>,
## #   district <chr>, post <dbl>, neighborhood <chr>, `Location 1` <chr>
```

---

### `filter`

We can also select entities based on attribute properties. For example, to select arrests where age is less than 18 years old, we would use the following:

```r
filter(arrest_tab, age < 18)
```

```
## # A tibble: 463 x 15
##    arrest   age race  sex   arrestDate arrestTime arrestLocation
##     <dbl> <dbl> <chr> <chr> <chr>      <time>     <chr>         
##  1 1.11e7    17 B     M     01/03/2011 15:00      <NA>          
##  2 1.11e7    17 B     M     01/07/2011 18:40      500 N Athol St
##  3 1.11e7    17 A     M     01/10/2011 22:00      <NA>          
##  4 1.11e7    17 B     M     01/13/2011 01:00      <NA>          
##  5 1.11e7    17 B     F     01/13/2011 13:40      1400 N Wilmer…
##  6 1.11e7    17 B     M     01/13/2011 18:40      1400 Wilmer St
##  7 1.11e7    14 B     M     01/17/2011 21:57      <NA>          
##  8 1.11e7    17 B     M     01/18/2011 15:00      <NA>          
##  9 1.11e7    17 B     M     01/18/2011 15:26      900 Seagull A…
## 10 1.11e7    16 B     M     01/18/2011 16:00      2300 N Charle…
## # … with 453 more rows, and 8 more variables: incidentOffense <chr>,
## #   incidentLocation <chr>, charge <chr>, chargeDescription <chr>,
## #   district <chr>, post <dbl>, neighborhood <chr>, `Location 1` <chr>
```
…
`==`, `!=`: tests equality and inequality respectively (categorical, numerical, datetimes, etc.)  
`<`, `>`, `<=`, `>=`: tests order relationships for ordered data types (not categorical)  
`!`, `&`, `|`: not, and, or, logical operators

---

To select arrests with ages between 18 and 25 we can use

```r
filter(arrest_tab, age >= 18 & age <= 25)
```

```
## # A tibble: 35,770 x 15
##    arrest   age race  sex   arrestDate arrestTime arrestLocation
##     <dbl> <dbl> <chr> <chr> <chr>      <time>     <chr>         
##  1 1.11e7    23 B     M     01/01/2011 00:00      <NA>          
##  2 1.11e7    20 W     M     01/01/2011 00:05      5200 Moravia …
##  3 1.11e7    24 B     M     01/01/2011 00:07      2400 Gainsdbo…
##  4 1.11e7    25 B     M     01/01/2011 00:20      2800 Violet A…
##  5 1.11e7    24 B     M     01/01/2011 00:40      3900 Greenmou…
##  6 1.11e7    20 B     M     01/01/2011 01:22      1900 Ashburto…
##  7 1.11e7    23 B     M     01/01/2011 01:30      2600 Aisquith…
##  8 1.11e7    22 A     M     01/01/2011 01:40      <NA>          
##  9 1.11e7    20 W     M     01/01/2011 02:00      300 S Bentalo…
## 10 1.11e7    20 B     M     01/01/2011 02:20      900 Myrtle Ave
## # … with 35,760 more rows, and 8 more variables: incidentOffense <chr>,
## #   incidentLocation <chr>, charge <chr>, chargeDescription <chr>,
## #   district <chr>, post <dbl>, neighborhood <chr>, `Location 1` <chr>
```

---

The filter function can take multiple logical expressions. In this case they are combined with `&`. So the above is equivalent to

```r
filter(arrest_tab, age >= 18, age <= 25)
```

```
## # A tibble: 35,770 x 15
##    arrest   age race  sex   arrestDate arrestTime arrestLocation
##     <dbl> <dbl> <chr> <chr> <chr>      <time>     <chr>         
##  1 1.11e7    23 B     M     01/01/2011 00:00      <NA>          
##  2 1.11e7    20 W     M     01/01/2011 00:05      5200 Moravia …
##  3 1.11e7    24 B     M     01/01/2011 00:07      2400 Gainsdbo…
##  4 1.11e7    25 B     M     01/01/2011 00:20      2800 Violet A…
##  5 1.11e7    24 B     M     01/01/2011 00:40      3900 Greenmou…
##  6 1.11e7    20 B     M     01/01/2011 01:22      1900 Ashburto…
##  7 1.11e7    23 B     M     01/01/2011 01:30      2600 Aisquith…
##  8 1.11e7    22 A     M     01/01/2011 01:40      <NA>          
##  9 1.11e7    20 W     M     01/01/2011 02:00      300 S Bentalo…
## 10 1.11e7    20 B     M     01/01/2011 02:20      900 Myrtle Ave
## # … with 35,760 more rows, and 8 more variables: incidentOffense <chr>,
## #   incidentLocation <chr>, charge <chr>, chargeDescription <chr>,
## #   district <chr>, post <dbl>, neighborhood <chr>, `Location 1` <chr>
```
…
---

The `sample_frac` function selects a fraction of entitites at random:

```r
sample_frac(arrest_tab, .1)
```

```
## # A tibble: 10,453 x 15
##    arrest   age race  sex   arrestDate arrestTime arrestLocation
##     <dbl> <dbl> <chr> <chr> <chr>      <time>     <chr>         
##  1 1.13e7    34 B     M     09/26/2011 19:30      <NA>          
##  2 1.25e7    20 B     M     04/05/2012 04:30      1300 N Calhou…
##  3 1.11e7    26 B     M     02/04/2011 10:10      <NA>          
##  4 1.25e7    20 B     M     09/05/2012 10:45      <NA>          
##  5 1.26e7    32 B     M     11/08/2012 08:35      3800 Brehms Ln
##  6 1.25e7    45 W     F     03/31/2012 17:30      2100 Eagle St 
##  7 1.12e7    22 B     F     05/07/2011 00:30      <NA>          
##  8 1.26e7    28 U     M     11/20/2012 11:30      0 N Monroe St 
##  9 1.25e7    45 B     M     04/05/2012 10:30      1600 Carswell…
## 10 1.24e7    44 B     M     03/20/2012 07:00      <NA>          
## # … with 10,443 more rows, and 8 more variables: incidentOffense <chr>,
## #   incidentLocation <chr>, charge <chr>, chargeDescription <chr>,
## #   district <chr>, post <dbl>, neighborhood <chr>, `Location 1` <chr>
```
…
This is the core a lot of what we will do in class as part of data analyses. 

Specifically, we will combine operations into _pipelines_ that manipulate data frames.

---

In R, the `dplyr` package introduces _syntactic sugar_ to make this pattern explicit. 

```r
arrest_tab %>%
  sample_frac(.1)
```

```
## # A tibble: 10,453 x 15
##     arrest   age race  sex   arrestDate arrestTime arrestLocation
##      <dbl> <dbl> <chr> <chr> <chr>      <time>     <chr>         
##  1  1.24e7    59 W     M     01/14/2012 17:50      600 Monroe St 
##  2  1.12e7    44 B     M     05/01/2011 00:30      <NA>          
##  3  1.24e7    26 W     M     03/28/2012 02:15      <NA>          
##  4  1.26e7    23 B     M     12/05/2012 11:28      <NA>          
##  5  1.26e7    31 B     M     09/24/2012 17:20      1900 E Federa…
##  6 NA         37 W     M     03/16/2011 02:00      1800 W. Mulbe…
##  7  1.13e7    29 B     M     06/27/2011 18:30      600 Braddish …
##  8  1.26e7    35 B     M     10/14/2012 11:50      <NA>          
##  9  1.25e7    26 B     M     04/01/2012 01:35      3200 Tivoly St
## 10  1.25e7    24 B     M     05/23/2012 19:00      <NA>          
## # … with 10,443 more rows, and 8 more variables: incidentOffense <chr>,
## #   incidentLocation <chr>, charge <chr>, chargeDescription <chr>,
## #   district <chr>, post <dbl>, neighborhood <chr>, `Location 1` <chr>
```
…
We will assign the result to variable `analysis_tab`

---

```r
analysis_tab <- arrest_tab %>%
  filter(age >= 18, age <= 25) %>%
  select(sex, district, arrest_date=arrestDate) %>%
  sample_frac(.5)
analysis_tab
```

```
## # A tibble: 17,885 x 3
##    sex   district     arrest_date
##    <chr> <chr>        <chr>      
##  1 M     EASTERN      12/14/2012 
##  2 F     <NA>         08/10/2011 
##  3 M     <NA>         03/09/2012 
##  4 M     <NA>         04/06/2012 
##  5 M     WESTERN      01/06/2011 
##  6 M     SOUTHERN     01/31/2011 
##  7 M     NORTHEASTERN 09/15/2012 
##  8 M     SOUTHERN     09/22/2011 
##  9 M     NORTHWESTERN 11/17/2011 
## 10 M     <NA>         02/08/2011 
## # … with 17,875 more rows
```
…
Suppose I want to represent age in months rather than years in our dataset. To do so I would multiply 12 to the existing age attribute. The function `mutate` creates new attributes based on the result of a given expression:

```r
arrest_tab %>%
  mutate(age_months = 12 * age) %>%
  select(arrest, age, age_months)
```

```
## # A tibble: 104,528 x 3
##      arrest   age age_months
##       <dbl> <dbl>      <dbl>
##  1 11126858    23        276
##  2 11127013    37        444
##  3 11126887    46        552
##  4 11126873    50        600
##  5 11126968    33        396
##  6 11127041    41        492
##  7 11126932    29        348
##  8 11126940    20        240
##  9 11127051    24        288
## 10 11127018    53        636
## # … with 104,518 more rows
```
…
The goal is to group entities with the same value of one or
more attributes. The `group_by` function in essence annotates the rows of a data frame as belonging to a specific group based on the value of some chosen attributes. This call returns a data frame that is grouped by the value of the `district` attribute.

```r
group_by(arrest_tab, district)
```

```
## # A tibble: 104,528 x 15
## # Groups:   district [10]
##    arrest   age race  sex   arrestDate arrestTime arrestLocation
##     <dbl> <dbl> <chr> <chr> <chr>      <time>     <chr>         
##  1 1.11e7    23 B     M     01/01/2011 00'00"     <NA>          
##  2 1.11e7    37 B     M     01/01/2011 01'00"     2000 Wilkens …
##  3 1.11e7    46 B     M     01/01/2011 01'00"     2800 Mayfield…
##  4 1.11e7    50 B     M     01/01/2011 04'00"     2100 Ashburto…
##  5 1.11e7    33 B     M     01/01/2011 05'00"     4000 Wilsby A…
##  6 1.11e7    41 B     M     01/01/2011 05'00"     2900 Spellman…
##  7 1.11e7    29 B     M     01/01/2011 05'00"     800 N Monroe …
##  8 1.11e7    20 W     M     01/01/2011 05'00"     5200 Moravia …
##  9 1.11e7    24 B     M     01/01/2011 07'00"     2400 Gainsdbo…
## 10 1.11e7    53 B     M     01/01/2011 15'00"     3300 Woodland…
## # … with 104,518 more rows, and 8 more variables: incidentOffense <chr>,
## #   incidentLocation <chr>, charge <chr>, chargeDescription <chr>,
## #   district <chr>, post <dbl>, neighborhood <chr>, `Location 1` <chr>
```
…
