Lecture Notes: Introduction to Data Science
…
## Warning in rbind(names(probs), probs_f): number of columns of result is not
## a multiple of vector length (arg 1)

## Warning: 1000 parsing failures.
## row # A tibble: 5 x 5 col     row col   expected               actual             file               expected   <int> <chr> <chr>                  <chr>              <chr>              actual 1  1001 x     no trailing characters .23837975086644292 '/Library/Framewo… file 2  1002 x     no trailing characters .41167997173033655 '/Library/Framewo… row 3  1003 x     no trailing characters .7460716762579978  '/Library/Framewo… col 4  1004 x     no trailing characters .723450553836301   '/Library/Framewo… expected 5  1005 x     no trailing characters .614524137461558   '/Library/Framewo…
## ... ................. ... .......................................................................... ........ .......................................................................... ...... .......................................................................... .... .......................................................................... ... .......................................................................... ... .......................................................................... ........ ..........................................................................
## See problems(...) for more details.

problems(df)

## # A tibble: 1,000 x 5
##      row col   expected               actual             file             
##    <int> <chr> <chr>                  <chr>              <chr>            
##  1  1001 x     no trailing characters .23837975086644292 '/Library/Framew…
##  2  1002 x     no trailing characters .41167997173033655 '/Library/Framew…
##  3  1003 x     no trailing characters .7460716762579978  '/Library/Framew…
##  4  1004 x     no trailing characters .723450553836301   '/Library/Framew…
##  5  1005 x     no trailing characters .614524137461558   '/Library/Framew…
##  6  1006 x     no trailing characters .473980569280684   '/Library/Framew…
##  7  1007 x     no trailing characters .5784610391128808  '/Library/Framew…
##  8  1008 x     no trailing characters .2415937229525298  '/Library/Framew…
##  9  1009 x     no trailing characters .11437866208143532 '/Library/Framew…
## 10  1010 x     no trailing characters .2983446326106787  '/Library/Framew…
## # ... with 990 more rows
…
Now that we’ve extracted each attribute separately we can combine them into a single data frame

billboard_df <- data_frame(month_day=dates, year="2017", song_title_raw=song_titles, title_span=title_spans,
                           artist_raw=artists)
billboard_df

## # A tibble: 52 x 5
##    month_day   year  song_title_raw       title_span artist_raw           
##    <chr>       <chr> <chr>                <chr>      <chr>                
##  1 January 7   2017  "\"Starboy\""        <NA>       The Weeknd featuring…
##  2 January 14  2017  "\"Black Beatles\""  <NA>       Rae Sremmurd featuri…
##  3 January 21  2017  "\"Bad and Boujee\"" <NA>       Migos featuring Lil …
##  4 January 28  2017  "\"Shape of You\" "  <NA>       Ed Sheeran           
##  5 February 4  2017  "\"Bad and Boujee\"" 2          Migos featuring Lil …
##  6 February 11 2017  [7]                  <NA>       <NA>                 
##  7 February 18 2017  "\"Shape of You\" "  11         Ed Sheeran           
##  8 February 25 2017  [9]                  <NA>       <NA>                 
##  9 March 4     2017  [10]                 <NA>       <NA>                 
## 10 March 11    2017  [11]                 <NA>       <NA>                 
## # ... with 42 more rows
…
  # extract artists
  artist_nodes <- singles_tab_node %>% html_nodes("tr") %>% html_node("td:nth-of-type(2)") %>% magrittr::extract(-1)
  artists <-  artist_nodes %>% html_text()
  
  # make data frame
  data_frame(month_day=dates, year=year, song_title_raw=song_titles, title_span=title_spans,
                           artist_raw=artists)
}

scrape_billboard("2016")

## # A tibble: 53 x 5
##    month_day   year  song_title_raw       title_span artist_raw           
##    <chr>       <chr> <chr>                <chr>      <chr>                
##  1 January 2   2016  "\"Hello\""          3          Adele                
##  2 January 9   2016  [4]                  <NA>       <NA>                 
##  3 January 16  2016  [5]                  <NA>       <NA>                 
##  4 January 23  2016  "\"Sorry\""          3          Justin Bieber        
##  5 January 30  2016  [7]                  <NA>       <NA>                 
##  6 February 6  2016  [8]                  <NA>       <NA>                 
##  7 February 13 2016  "\"Love Yourself\" " <NA>       [9]                  
##  8 February 20 2016  "\"Pillowtalk\""     <NA>       Zayn                 
##  9 February 27 2016  "\"Love Yourself\" " <NA>       Justin Bieber        
## 10 March 5     2016  "\"Work\""           9          Rihanna featuring Dr…
## # ... with 43 more rows
…
