…
### Step 1: Scrape your competitor's data (10 pts)

Use the `rvest` package to scrape data for the top 50 solar flares shown in [SpaceWeatherLive.com](https://www.spaceweatherlive.com/en/solar-activity/top-50-solar-flares). Steps to do this are:

1. Use the `html` function to read the html page from the url above
2. Use the `html_nodes` function to find the page node corresponding to the table we want. Notice there are more than one table in that page, so you need to make sure you are finding the proper node.
3. Use the `html_table` to parse the table into a data frame
4. Set reasonable names for the table columns, e.g., `rank`, `x_classification`, `date`, `region`,
`start_time`, `maximum_time`, `end_time`, `movie`. You can use `magrittr::set_colnames` to do this within a pipeline.
5. Use the `tibble::as_tibble` function to make display and keeping track of column types easier.

The result should be a data frame, a `tibble` really with the first few rows as:

```
# A tibble: 50 × 8
    rank x_class       date region start_time max_time end_time             movie
   <int>   <chr>      <chr>  <chr>      <chr>    <chr>    <chr>             <chr>
1      1   X28.0 2003/11/04   0486      19:29    19:53    20:06 MovieView archive
2      2     X20 2001/04/02   9393      21:32    21:51    22:03 MovieView archive
3      3   X17.2 2003/10/28   0486      09:51    11:10    11:24 MovieView archive
4      4   X17.0 2005/09/07   0808      17:17    17:40    18:03 MovieView archive
5      5   X14.4 2001/04/15   9415      13:19    13:50    13:55 MovieView archive
6      6   X10.0 2003/10/29   0486      20:37    20:49    21:01 MovieView archive
7      7    X9.4 1997/11/06      -      11:49    11:55    12:01 MovieView archive
8      8    X9.0 2006/12/05   0930      10:18    10:35    10:45 MovieView archive
9      9    X8.3 2003/11/02   0486      17:03    17:25    17:39 MovieView archive
10    10    X7.1 2005/01/20   0720      06:36    07:01    07:26 MovieView archive
# ... with 40 more rows
```

### Step 2: Tidy the top 50 solar flare data (10 pts)

Your next step is to make sure this table is usable using the `dplyr` and `tidyr` packages:

1. Drop the last column of the table, since we are not going to use it moving forward.
2. Use the `tidyr::unite` package to combine the `date` and each of the three time columns into three datetime columns. You will see why this is useful later on.
3. Set regions coded as `-` as missing (`NA`). You can use `stringr::str_detect` here.
4. Use the `readr::type_convert`` function to convert columns containing datetimes into actual datetime objects.

The result of this step should be a data frame with the first few rows as:

```
# A tibble: 50 × 6
    rank x_class      start_datetime        max_datetime        end_datetime region
   <int>   <chr>              <dttm>              <dttm>              <dttm>  <chr>
1      1   X28.0 2003-11-04 19:29:00 2003-11-04 19:53:00 2003-11-04 20:06:00   0486
2      2     X20 2001-04-02 21:32:00 2001-04-02 21:51:00 2001-04-02 22:03:00   9393
3      3   X17.2 2003-10-28 09:51:00 2003-10-28 11:10:00 2003-10-28 11:24:00   0486
4      4   X17.0 2005-09-07 17:17:00 2005-09-07 17:40:00 2005-09-07 18:03:00   0808
5      5   X14.4 2001-04-15 13:19:00 2001-04-15 13:50:00 2001-04-15 13:55:00   9415
6      6   X10.0 2003-10-29 20:37:00 2003-10-29 20:49:00 2003-10-29 21:01:00   0486
7      7    X9.4 1997-11-06 11:49:00 1997-11-06 11:55:00 1997-11-06 12:01:00   <NA>
8      8    X9.0 2006-12-05 10:18:00 2006-12-05 10:35:00 2006-12-05 10:45:00   0930
9      9    X8.3 2003-11-02 17:03:00 2003-11-02 17:25:00 2003-11-02 17:39:00   0486
10    10    X7.1 2005-01-20 06:36:00 2005-01-20 07:01:00 2005-01-20 07:26:00   0720
# ... with 40 more rows
```
…
<p class="MsoNormal" style="tab-stops:125.25pt"><o:p>&nbsp;</o:p></p>

<p class="MsoNormal"><o:p>&nbsp;</o:p></p>

</div>

#### Tasks

1. Use `rvest` functions (e.g., `html_node`, `html_text`) and `stringr` functions (e.g., `str_split`, `str_subset`) obtain each row of data as a long string. Create a `data_frame` at this point so it's easier to use `dplyr` and `tidyr` for the next few steps.
2. Use `tidyr::separate` to separate each line of text into a data row. Choose appropriate names for columns.

The result of this step should be similar to:

```
# A tibble: 482 × 14
   start_date start_time end_date end_time start_frequency end_frequency flare_location flare_region
*       <chr>      <chr>    <chr>    <chr>           <chr>         <chr>          <chr>        <chr>
1  1997/04/01      14:00    04/01    14:15            8000          4000         S25E16         8026
2  1997/04/07      14:30    04/07    17:30           11000          1000         S28E19         8027
3  1997/05/12      05:15    05/14    16:00           12000            80         N21W08         8038
4  1997/05/21      20:20    05/21    22:00            5000           500         N05W12         8040
5  1997/09/23      21:53    09/23    22:16            6000          2000         S29E25         8088
6  1997/11/03      05:15    11/03    12:00           14000           250         S20W13         8100
7  1997/11/03      10:30    11/03    11:30           14000          5000         S16W21         8100
8  1997/11/04      06:00    11/05    04:30           14000           100         S14W33         8100
9  1997/11/06      12:20    11/07    08:30           14000           100         S18W63         8100
10 1997/11/27      13:30    11/27    14:00           14000          7000         N17E63         8113
# ... with 472 more rows, and 6 more variables: flare_classification <chr>, cme_date <chr>,
#   cme_time <chr>, cme_angle <chr>, cme_width <chr>, cme_speed <chr>
```

### Step 4: Tidy the NASA the table (15 pts)

Now, we tidy up the NASA table. Here we will code missing observations properly, recode columns that correspond to more than one piece of information, treat dates and times appropriately, and finally convert each column to the appropriate data type.

1. Recode any missing entries as `NA`. Refer to the data description in http://cdaw.gsfc.nasa.gov/CME_list/radio/waves_type2_description.html (and above) to see how missing entries are encoded in each column. 
2. The CPA column (`cme_angle`) contains angles in degrees for most rows, except for halo flares, which are coded as `Halo`. Create a new column that indicates if a row corresponds to a halo flare or not, and then replace `Halo` entries in the `cme_angle` column as NA.
3. The `width` column indicates if the given value is a lower bound. Create a new column that indicates if width is given as a lower bound, and remove any non-numeric part of the width column.
4. Combine date and time columns for `start`, `end` and `cme` so they can be encoded as `datetime` objects.
5. Use the `readr::type_convert` function to convert columns to appropriate types.

The output of this step should be similar to this (note the column types)

```
# A tibble: 482 × 13
        start_datetime        end_datetime        cme_datetime start_frequency end_frequency
                <dttm>              <dttm>              <dttm>           <int>         <int>
1  1997-04-01 14:00:00 1997-04-01 14:15:00 1997-04-01 15:18:00            8000          4000
2  1997-04-07 14:30:00 1997-04-07 17:30:00 1997-04-07 14:27:00           11000          1000
3  1997-05-12 05:15:00 1997-05-14 16:00:00 1997-05-12 05:30:00           12000            80
4  1997-05-21 20:20:00 1997-05-21 22:00:00 1997-05-21 21:00:00            5000           500
5  1997-09-23 21:53:00 1997-09-23 22:16:00 1997-09-23 22:02:00            6000          2000
6  1997-11-03 05:15:00 1997-11-03 12:00:00 1997-11-03 05:28:00           14000           250
7  1997-11-03 10:30:00 1997-11-03 11:30:00 1997-11-03 11:11:00           14000          5000
8  1997-11-04 06:00:00 1997-11-05 04:30:00 1997-11-04 06:10:00           14000           100
9  1997-11-06 12:20:00 1997-11-07 08:30:00 1997-11-06 12:10:00           14000           100
10 1997-11-27 13:30:00 1997-11-27 14:00:00 1997-11-27 13:56:00           14000          7000
# ... with 472 more rows, and 8 more variables: flare_location <chr>, flare_region <chr>,
#   flare_classification <chr>, cme_angle <int>, cme_width <int>, cme_speed <int>, cme_halo <lgl>,
#   cme_width_lb <lgl>
```
…
