Project 3 (part 2): Classification
…
library(tidyverse)
library(lubridate)
theme_set(theme_bw())

csv_file <- "Affordability_Wide_2017Q4_Public.csv"
tidy_afford <- read_csv(csv_file) %>%
  filter(Index == "Mortgage Affordability") %>%
  drop_na() %>%
  filter(RegionID != 0, RegionName != "United States") %>%
  dplyr::select(RegionID, RegionName, matches("^[1|2]")) %>%
  gather(time, affordability, matches("^[1|2]")) %>%
  type_convert(col_types=cols(time=col_date(format="%Y-%m")))
tidy_afford

## # A tibble: 12,480 x 4
##    RegionID RegionName                         time       affordability
##       <int> <chr>                              <date>             <dbl>
##  1   394913 New York, NY                       1979-03-01         0.262
##  2   753899 Los Angeles-Long Beach-Anaheim, CA 1979-03-01         0.358
##  3   394463 Chicago, IL                        1979-03-01         0.262
##  4   394514 Dallas-Fort Worth, TX              1979-03-01         0.301
##  5   394974 Philadelphia, PA                   1979-03-01         0.204
##  6   394692 Houston, TX                        1979-03-01         0.243
##  7   395209 Washington, DC                     1979-03-01         0.254
##  8   394856 Miami-Fort Lauderdale, FL          1979-03-01         0.268
##  9   394347 Atlanta, GA                        1979-03-01         0.248
## 10   394404 Boston, MA                         1979-03-01         0.222
## # ... with 12,470 more rows
…
Can we predict if mortgage affordability will increase or decrease a year from now"

Specifically, we will do this for the last observation in the dataset (quarter 4 (Q4) of 2017). To create the outcome we will predict we will compare affordability for Q4 of 2017 and to Q4 of 2016 and label it as up or down depending on the sign of the this difference. Lets create the outcome we want to predict (again, copy this bit of code to your submission):

outcome_df <- tidy_afford %>%
  mutate(yq = quarter(time, with_year=TRUE)) %>%
  filter(yq %in% c("2016.4", "2017.4")) %>%
  select(RegionID, RegionName, yq, affordability) %>%
  spread(yq, affordability) %>%
  mutate(diff = `2017.4` - `2016.4`) %>%
  mutate(Direction = ifelse(diff>0, "up", "down")) %>%
  select(RegionID, RegionName, Direction)
outcome_df

## # A tibble: 80 x 3
##    RegionID RegionName      Direction
##       <int> <chr>           <chr>    
##  1   394304 Akron, OH       down     
##  2   394312 Albuquerque, NM down     
##  3   394318 Allentown, PA   down     
##  4   394347 Atlanta, GA     up       
##  5   394355 Austin, TX      up       
##  6   394357 Bakersfield, CA down     
##  7   394358 Baltimore, MD   down     
##  8   394367 Baton Rouge, LA up       
##  9   394378 Bellingham, WA  up       
## 10   394388 Birmingham, AL  down     
## # ... with 70 more rows
…
