Network Data
…
In terms of our previous discussion on tidy, rectangular datasets, this is a case where we need to have two distinct
tables to represent this data. 

- One table represents entities and their attributes:

```
## # A tibble: 1,920 x 2
##    name        node_type
##    <chr>       <chr>    
##  1 C746757564  C        
##  2 C336400944  C        
##  3 C1562533966 C        
##  4 C1889457907 C        
##  5 C1940311161 C        
##  6 C501036152  C        
##  7 C1594857799 C        
##  8 C916100517  C        
##  9 C1029898472 C        
## 10 C1107404311 C        
## # … with 1,910 more rows
```

---

- Second table to represent edges and their attributes:

```
## # A tibble: 1,101 x 11
##     from    to  step type  amount oldbalanceOrg newbalanceOrig
##    <int> <int> <dbl> <chr>  <dbl>         <dbl>          <dbl>
##  1     1  1102     2 CASH… 8.43e4      7929846.       8014145.
##  2     2  1103     1 PAYM… 2.60e4            0              0 
##  3     3  1104     5 PAYM… 2.50e3            0              0 
##  4     4  1105     2 PAYM… 9.63e3         6847              0 
##  5     5  1106     3 PAYM… 1.53e4         9083              0 
##  6     6  1107     1 CASH… 1.68e5        30040.        198492.
##  7     7  1108     2 CASH… 6.31e4      6308037.       6371153.
##  8     8  1109     5 PAYM… 1.01e4        60358.         50235.
##  9     9  1110     1 PAYM… 3.39e3       340661         337268.
## 10    10  1111     1 PAYM… 2.18e4            0              0 
## # … with 1,091 more rows, and 4 more variables: oldbalanceDest <dbl>,
## #   newbalanceDest <dbl>, isFraud <fct>, isFlaggedFraud <dbl>
```
…
## Network-derived attributes

---

Besides attributes measured for each node, in our example the
type of party (Merchant or not for example), we can derive 
node and edge attributes based on the structure of the network.

For instance, we can compute the _degree_ of a node, that is, the number of edges incident to the node. 

---

```
## # A tibble: 1,920 x 4
##    name        node_type in_degree out_degree
##    <chr>       <chr>         <dbl>      <dbl>
##  1 C746757564  C                 0          1
##  2 C336400944  C                 0          1
##  3 C1562533966 C                 0          1
##  4 C1889457907 C                 0          1
##  5 C1940311161 C                 0          1
##  6 C501036152  C                 0          1
##  7 C1594857799 C                 0          1
##  8 C916100517  C                 0          1
##  9 C1029898472 C                 0          1
## 10 C1107404311 C                 0          1
## # … with 1,910 more rows
```
…
