Project 4: Classification
…
library(tidyverse)
library(lubridate)
theme_set(theme_bw())

csv_file <- "Affordability_Wide_2017Q4_Public.csv"
tidy_afford <- read_csv(csv_file) %>%
  filter(Index == "Mortgage Affordability") %>%
  drop_na() %>%
  filter(RegionID != 0, RegionName != "United States") %>%
  dplyr::select(RegionID, RegionName, matches("^[1|2]")) %>%
  gather(time, affordability, matches("^[1|2]")) %>%
  type_convert(col_types=cols(time=col_date(format="%Y-%m")))
tidy_afford

## # A tibble: 12,480 x 4
##    RegionID RegionName                         time       affordability
##       <dbl> <chr>                              <date>             <dbl>
##  1   394913 New York, NY                       1979-03-01         0.262
##  2   753899 Los Angeles-Long Beach-Anaheim, CA 1979-03-01         0.358
##  3   394463 Chicago, IL                        1979-03-01         0.262
##  4   394514 Dallas-Fort Worth, TX              1979-03-01         0.301
##  5   394974 Philadelphia, PA                   1979-03-01         0.204
##  6   394692 Houston, TX                        1979-03-01         0.243
##  7   395209 Washington, DC                     1979-03-01         0.254
##  8   394856 Miami-Fort Lauderdale, FL          1979-03-01         0.268
##  9   394347 Atlanta, GA                        1979-03-01         0.248
## 10   394404 Boston, MA                         1979-03-01         0.222
## #  with 12,470 more rows
…
Can we predict if mortgage affordability will increase or decrease a year from now"

Specifically, we will do this for quarter 4 (Q4) of 2017. To create the outcome we will predict we will compare affordability for Q4 of 2017 to Q4 of 2016 and label it as up or down depending on the sign of the this difference. Lets create the outcome we want to predict (again, copy this bit of code to your submission):

outcome_df <- tidy_afford %>%
  mutate(yq = quarter(time, with_year=TRUE)) %>%
  filter(yq %in% c("2016.4", "2017.4")) %>%
  select(RegionID, RegionName, yq, affordability) %>%
  spread(yq, affordability) %>%
  mutate(diff = `2017.4` - `2016.4`) %>%
  mutate(Direction = ifelse(diff>0, "up", "down")) %>%
  select(RegionID, RegionName, Direction)
outcome_df

## # A tibble: 80 x 3
##    RegionID RegionName      Direction
##       <dbl> <chr>           <chr>    
##  1   394304 Akron, OH       down     
##  2   394312 Albuquerque, NM down     
##  3   394318 Allentown, PA   down     
##  4   394347 Atlanta, GA     up       
##  5   394355 Austin, TX      up       
##  6   394357 Bakersfield, CA down     
##  7   394358 Baltimore, MD   down     
##  8   394367 Baton Rouge, LA up       
##  9   394378 Bellingham, WA  up       
## 10   394388 Birmingham, AL  down     
## #  with 70 more rows
…
Data preparation

First, filter to the years of interest and standardize affordability for each region

standardized_df <- predictor_df %>%
  filter(year(time) %in% 2014:2016) %>%
  group_by(RegionID) %>%
  mutate(mean_aff = mean(affordability)) %>%
  mutate(sd_aff = sd(affordability)) %>%
  mutate(z_aff = (affordability - mean_aff) / sd_aff) %>%
  ungroup()
standardized_df

## # A tibble: 960 x 7
##    RegionID RegionName         time       affordability mean_aff  sd_aff   z_aff
##       <dbl> <chr>              <date>             <dbl>    <dbl>   <dbl>   <dbl>
##  1   394913 New York, NY       2014-03-01         0.258    0.246 0.00854  1.41  
##  2   753899 Los Angeles-Long  2014-03-01         0.399    0.390 0.0111   0.799 
##  3   394463 Chicago, IL        2014-03-01         0.142    0.136 0.00422  1.26  
##  4   394514 Dallas-Fort Worth 2014-03-01         0.123    0.127 0.00779 -0.503 
##  5   394974 Philadelphia, PA   2014-03-01         0.152    0.144 0.00518  1.68  
##  6   394692 Houston, TX        2014-03-01         0.117    0.119 0.00545 -0.384 
##  7   395209 Washington, DC     2014-03-01         0.185    0.177 0.00588  1.47  
##  8   394856 Miami-Fort Lauder 2014-03-01         0.178    0.194 0.0131  -1.17  
##  9   394347 Atlanta, GA        2014-03-01         0.118    0.118 0.00384 -0.0115
## 10   394404 Boston, MA         2014-03-01         0.223    0.217 0.00662  0.875 
## #  with 950 more rows

To train our model we need a table with one row per region, and attributes corresponding to differences in quarterly affordability. We will do this in stages, first we turn the tidy dataset into a wide dataset using tidyr::spread then create a dataframe containing the differences we use as features.

wide_df <- standardized_df %>%
  select(RegionID, time, z_aff) %>%
  tidyr::spread(time, z_aff)
wide_df

## # A tibble: 80 x 13
##    RegionID `2014-03-01` `2014-06-01` `2014-09-01` `2014-12-01` `2015-03-01`
##       <dbl>        <dbl>        <dbl>        <dbl>        <dbl>        <dbl>
##  1   394304      0.755          0.272       0.0480      -1.09         -1.20 
##  2   394312      1.38           0.727       0.635       -0.378        -0.531
##  3   394318      1.70           1.28        1.02        -0.175        -0.562
##  4   394347     -0.0115        -0.319      -0.220       -1.16         -0.980
##  5   394355     -0.00220       -0.374      -0.281       -1.31         -1.16 
##  6   394357     -0.195         -0.691      -0.453       -1.19         -0.829
##  7   394358      1.68           1.21        1.09         0.0387       -0.419
##  8   394367     -0.153         -0.638      -0.377       -1.04         -1.12 
##  9   394378     -0.0408        -0.479       0.0482      -1.06         -0.965
## 10   394388      2.01           1.09        0.614       -0.399        -0.569
## #  with 70 more rows, and 7 more variables: `2015-06-01` <dbl>,
## #   `2015-09-01` <dbl>, `2015-12-01` <dbl>, `2016-03-01` <dbl>,
## #   `2016-06-01` <dbl>, `2016-09-01` <dbl>, `2016-12-01` <dbl>
…
diff_df <- (matrix_1 - matrix_2) %>%
  magrittr::set_colnames(NULL) %>%
  as_data_frame() %>%
  mutate(RegionID = wide_df$RegionID)

Finally, add the outcome we want to predict from the data frame we created previously.

final_df <- diff_df %>%
  inner_join(outcome_df %>% select(RegionID, Direction), by="RegionID") %>%
  mutate(Direction=factor(Direction, levels=c("down", "up"))) %>%
  select(-RegionID)
final_df

## # A tibble: 80 x 12
##        V1      V2     V3      V4    V5      V6      V7     V8      V9     V10
##     <dbl>   <dbl>  <dbl>   <dbl> <dbl>   <dbl>   <dbl>  <dbl>   <dbl>   <dbl>
##  1 -0.482 -0.224  -1.13  -0.113  1.22   0.0828  0.270  -0.869 -0.187   0.0372
##  2 -0.656 -0.0920 -1.01  -0.153  0.757 -0.0590 -0.138  -0.908 -0.449  -0.297 
##  3 -0.423 -0.251  -1.20  -0.387  0.646 -0.0271 -0.110  -0.718 -0.498  -0.388 
##  4 -0.308  0.0988 -0.938  0.179  1.26   0.0681  0.392  -0.874 -0.361  -0.201 
##  5 -0.371  0.0929 -1.03   0.150  1.60  -0.107   0.307  -0.541 -0.384  -0.347 
##  6 -0.496  0.239  -0.738  0.362  1.04  -0.0637  0.465  -0.607 -0.0931 -0.205 
##  7 -0.472 -0.118  -1.05  -0.458  0.509 -0.285   0.116  -0.844 -0.327  -0.402 
##  8 -0.485  0.261  -0.661 -0.0810 0.921  0.0145  0.427  -0.213  0.231   0.123 
##  9 -0.438  0.527  -1.11   0.0971 0.720  0.191   0.186  -0.219  0.196  -0.386 
## 10 -0.919 -0.480  -1.01  -0.170  0.814 -0.407   0.0552 -0.684 -0.441  -0.217 
## #  with 70 more rows, and 2 more variables: V11 <dbl>, Direction <fct>
…
