16 Ingesting data | Lecture Notes: Introduction to Data Science
…
## Warning: 1000 parsing failures.
##  row col           expected     actual                                                                                         file
## 1001   y 1/0/T/F/TRUE/FALSE 2015-01-16 '/Library/Frameworks/R.framework/Versions/3.6/Resources/library/readr/extdata/challenge.csv'
## 1002   y 1/0/T/F/TRUE/FALSE 2018-05-18 '/Library/Frameworks/R.framework/Versions/3.6/Resources/library/readr/extdata/challenge.csv'
## 1003   y 1/0/T/F/TRUE/FALSE 2015-09-05 '/Library/Frameworks/R.framework/Versions/3.6/Resources/library/readr/extdata/challenge.csv'
## 1004   y 1/0/T/F/TRUE/FALSE 2012-11-28 '/Library/Frameworks/R.framework/Versions/3.6/Resources/library/readr/extdata/challenge.csv'
## 1005   y 1/0/T/F/TRUE/FALSE 2020-01-13 '/Library/Frameworks/R.framework/Versions/3.6/Resources/library/readr/extdata/challenge.csv'
## .... ... .................. .......... ............................................................................................
## See problems(...) for more details.

problems(df)

## # A tibble: 1,000 x 5
##      row col   expected    actual  file          
##    <int> <chr> <chr>       <chr>   <chr>         
##  1  1001 y     1/0/T/F/TR… 2015-0… '/Library/Fra…
##  2  1002 y     1/0/T/F/TR… 2018-0… '/Library/Fra…
##  3  1003 y     1/0/T/F/TR… 2015-0… '/Library/Fra…
##  4  1004 y     1/0/T/F/TR… 2012-1… '/Library/Fra…
##  5  1005 y     1/0/T/F/TR… 2020-0… '/Library/Fra…
##  6  1006 y     1/0/T/F/TR… 2016-0… '/Library/Fra…
##  7  1007 y     1/0/T/F/TR… 2011-0… '/Library/Fra…
##  8  1008 y     1/0/T/F/TR… 2020-0… '/Library/Fra…
##  9  1009 y     1/0/T/F/TR… 2011-0… '/Library/Fra…
## 10  1010 y     1/0/T/F/TR… 2010-0… '/Library/Fra…
## # … with 990 more rows
…
Now that we’ve extracted each attribute separately we can combine them into a single data frame

billboard_df <- data_frame(month_day=dates, year="2017", song_title_raw=song_titles, title_span=title_spans,
                           artist_raw=artists)

## Warning: `data_frame()` is deprecated, use `tibble()`.
## This warning is displayed once per session.

billboard_df

## # A tibble: 52 x 5
##    month_day year  song_title_raw title_span
##    <chr>     <chr> <chr>          <chr>     
##  1 "January… 2017  "1059\n"       <NA>      
##  2 "January… 2017  "re\n"         <NA>      
##  3 "January… 2017  "1060\n"       <NA>      
##  4 "January… 2017  "1061\n"       <NA>      
##  5 "Februar… 2017  "re\n"         2         
##  6 "Februar… 2017  "[7]"          <NA>      
##  7 "Februar… 2017  "re\n"         11        
##  8 "Februar… 2017  "[9]"          <NA>      
##  9 "March 4… 2017  "[10]"         <NA>      
## 10 "March 1… 2017  "[11]"         <NA>      
## # … with 42 more rows, and 1 more variable:
## #   artist_raw <chr>
…
  # extract artists
  artist_nodes <- singles_tab_node %>% html_nodes("tr") %>% html_node("td:nth-of-type(2)") %>% magrittr::extract(-1)
  artists <-  artist_nodes %>% html_text()
  
  # make data frame
  data_frame(month_day=dates, year=year, song_title_raw=song_titles, title_span=title_spans,
                           artist_raw=artists)
}

scrape_billboard("2016")

## # A tibble: 53 x 5
##    month_day year  song_title_raw title_span
##    <chr>     <chr> <chr>          <chr>     
##  1 "January… 2016  "1048\n"       3         
##  2 "January… 2016  "[4]"          <NA>      
##  3 "January… 2016  "[5]"          <NA>      
##  4 "January… 2016  "1049\n"       3         
##  5 "January… 2016  "[7]"          <NA>      
##  6 "Februar… 2016  "[8]"          <NA>      
##  7 "Februar… 2016  "1050\n"       <NA>      
##  8 "Februar… 2016  "1051\n"       <NA>      
##  9 "Februar… 2016  "re\n"         <NA>      
## 10 "March 5… 2016  "1052\n"       9         
## # … with 43 more rows, and 1 more variable:
## #   artist_raw <chr>
…
