5 Measurements and Data Types | Lecture Notes: Introduction to Data Science
…
We’ve prepared the data previously into a comma-separated value file (.csv file): each line contains attribute values (separated by commas) describing arrests in the City of Baltimore. The read_csv command is part of the readr R package and allows you to read a dataset stored in a csv file. This function is extremely versatile, and you can read more about it by using the standard help system in R: ?read_csv. The result of running calling this function is the data itself, so, by running the function in the console, the result of the function is printed.

Note: To download this dataset to follow along you can use the following code:

if (!dir.exists("data")) dir.create("data")

download.file("https://www.hcbravo.org/IntroDataSci/misc/BPD_Arrests.csv", destfile="data/BPD_Arrests.csv")

To make use of this dataset we want to assign the result of calling read_csv (i.e., the dataset) to a variable:

library(tidyverse)
arrest_tab <- read_csv("data/BPD_Arrests.csv")
arrest_tab

## # A tibble: 104,528 x 15
##    arrest   age race  sex   arrestDate arrestTime arrestLocation
##     <dbl> <dbl> <chr> <chr> <chr>      <time>     <chr>         
##  1 1.11e7    23 B     M     01/01/2011 00'00"     <NA>          
##  2 1.11e7    37 B     M     01/01/2011 01'00"     2000 Wilkens …
##  3 1.11e7    46 B     M     01/01/2011 01'00"     2800 Mayfield…
##  4 1.11e7    50 B     M     01/01/2011 04'00"     2100 Ashburto…
##  5 1.11e7    33 B     M     01/01/2011 05'00"     4000 Wilsby A…
##  6 1.11e7    41 B     M     01/01/2011 05'00"     2900 Spellman…
##  7 1.11e7    29 B     M     01/01/2011 05'00"     800 N Monroe …
##  8 1.11e7    20 W     M     01/01/2011 05'00"     5200 Moravia …
##  9 1.11e7    24 B     M     01/01/2011 07'00"     2400 Gainsdbo…
## 10 1.11e7    53 B     M     01/01/2011 15'00"     3300 Woodland…
## # … with 104,518 more rows, and 8 more variables: incidentOffense <chr>,
## #   incidentLocation <chr>, charge <chr>, chargeDescription <chr>,
## #   district <chr>, post <dbl>, neighborhood <chr>, `Location 1` <chr>
…
