7 Principles: More Operations | Lecture Notes: Introduction to Data Science
…
Suppose I want to represent age in months rather than years in our dataset. To do so I would multiply 12 to the existing age attribute. The function mutate creates new attributes based on the result of a given expression:

arrest_tab %>%
  mutate(age_months = 12 * age) %>%
  select(arrest, age, age_months)

## # A tibble: 104,528 x 3
##      arrest   age age_months
##       <dbl> <dbl>      <dbl>
##  1 11126858    23        276
##  2 11127013    37        444
##  3 11126887    46        552
##  4 11126873    50        600
##  5 11126968    33        396
##  6 11127041    41        492
##  7 11126932    29        348
##  8 11126940    20        240
##  9 11127051    24        288
## 10 11127018    53        636
## # … with 104,518 more rows
…
The goal is to group entities with the same value of one or
more attributes. The group_by function in essence annotates the rows of a data frame as belonging to a specific group based on the value of some chosen attributes. This call returns a data frame that is grouped by the value of the district attribute.

group_by(arrest_tab, district)

## # A tibble: 104,528 x 15
## # Groups:   district [10]
##    arrest   age race  sex   arrestDate arrestTime arrestLocation
##     <dbl> <dbl> <chr> <chr> <chr>      <time>     <chr>         
##  1 1.11e7    23 B     M     01/01/2011 00'00"     <NA>          
##  2 1.11e7    37 B     M     01/01/2011 01'00"     2000 Wilkens …
##  3 1.11e7    46 B     M     01/01/2011 01'00"     2800 Mayfield…
##  4 1.11e7    50 B     M     01/01/2011 04'00"     2100 Ashburto…
##  5 1.11e7    33 B     M     01/01/2011 05'00"     4000 Wilsby A…
##  6 1.11e7    41 B     M     01/01/2011 05'00"     2900 Spellman…
##  7 1.11e7    29 B     M     01/01/2011 05'00"     800 N Monroe …
##  8 1.11e7    20 W     M     01/01/2011 05'00"     5200 Moravia …
##  9 1.11e7    24 B     M     01/01/2011 07'00"     2400 Gainsdbo…
## 10 1.11e7    53 B     M     01/01/2011 15'00"     3300 Woodland…
## # … with 104,518 more rows, and 8 more variables: incidentOffense <chr>,
## #   incidentLocation <chr>, charge <chr>, chargeDescription <chr>,
## #   district <chr>, post <dbl>, neighborhood <chr>, `Location 1` <chr>
…
