Project 3 (part 2): Classification
…
library(tidyverse)
library(lubridate)
theme_set(theme_bw())

csv_file <- "Affordability_Wide_2017Q4_Public.csv"
tidy_afford <- read_csv(csv_file) %>%
  filter(Index == "Mortgage Affordability") %>%
  drop_na() %>%
  filter(RegionID != 0, RegionName != "United States") %>%
  dplyr::select(RegionID, RegionName, matches("^[1|2]")) %>%
  gather(time, affordability, matches("^[1|2]")) %>%
  type_convert(col_types=cols(time=col_date(format="%Y-%m")))
tidy_afford

## # A tibble: 12,480 x 4
##    RegionID RegionName                         time       affordability
##       <int> <chr>                              <date>             <dbl>
##  1   394913 New York, NY                       1979-03-01         0.262
##  2   753899 Los Angeles-Long Beach-Anaheim, CA 1979-03-01         0.358
##  3   394463 Chicago, IL                        1979-03-01         0.262
##  4   394514 Dallas-Fort Worth, TX              1979-03-01         0.301
##  5   394974 Philadelphia, PA                   1979-03-01         0.204
##  6   394692 Houston, TX                        1979-03-01         0.243
##  7   395209 Washington, DC                     1979-03-01         0.254
##  8   394856 Miami-Fort Lauderdale, FL          1979-03-01         0.268
##  9   394347 Atlanta, GA                        1979-03-01         0.248
## 10   394404 Boston, MA                         1979-03-01         0.222
## # ... with 12,470 more rows
…
Can we predict if mortgage affordability will increase or decrease a year from now"

Specifically, we will do this for the last observation in the dataset (quarter 4 (Q4) of 2017). To create the outcome we will predict we will compare affordability for Q4 of 2017 and to Q4 of 2016 and label it as up or down depending on the sign of the this difference. Lets create the outcome we want to predict (again, copy this bit of code to your submission):

outcome_df <- tidy_afford %>%
  mutate(yq = quarter(time, with_year=TRUE)) %>%
  filter(yq %in% c("2016.4", "2017.4")) %>%
  select(RegionID, RegionName, yq, affordability) %>%
  spread(yq, affordability) %>%
  mutate(diff = `2017.4` - `2016.4`) %>%
  mutate(Direction = ifelse(diff>0, "up", "down")) %>%
  select(RegionID, RegionName, Direction)
outcome_df

## # A tibble: 80 x 3
##    RegionID RegionName      Direction
##       <int> <chr>           <chr>    
##  1   394304 Akron, OH       down     
##  2   394312 Albuquerque, NM down     
##  3   394318 Allentown, PA   down     
##  4   394347 Atlanta, GA     up       
##  5   394355 Austin, TX      up       
##  6   394357 Bakersfield, CA down     
##  7   394358 Baltimore, MD   down     
##  8   394367 Baton Rouge, LA up       
##  9   394378 Bellingham, WA  up       
## 10   394388 Birmingham, AL  down     
## # ... with 70 more rows
…
diff_df <- (matrix_1 - matrix_2) %>%
  magrittr::set_colnames(NULL) %>%
  as_data_frame() %>%
  mutate(RegionID = wide_df$RegionID)

Finally, add the outcome we want to predict from the data frame we created previously.

final_df <- diff_df %>%
  inner_join(outcome_df %>% select(RegionID, Direction), by="RegionID") %>%
  mutate(Direction=factor(Direction, levels=c("down", "up")))
final_df

## # A tibble: 80 x 13
##        V1      V2     V3      V4    V5      V6      V7     V8      V9
##     <dbl>   <dbl>  <dbl>   <dbl> <dbl>   <dbl>   <dbl>  <dbl>   <dbl>
##  1 -0.482 -0.224  -1.13  -0.113  1.22   0.0828  0.270  -0.869 -0.187 
##  2 -0.656 -0.0920 -1.01  -0.153  0.757 -0.0590 -0.138  -0.908 -0.449 
##  3 -0.423 -0.251  -1.20  -0.387  0.646 -0.0271 -0.110  -0.718 -0.498 
##  4 -0.308  0.0988 -0.938  0.179  1.26   0.0681  0.392  -0.874 -0.361 
##  5 -0.371  0.0929 -1.03   0.150  1.60  -0.107   0.307  -0.541 -0.384 
##  6 -0.496  0.239  -0.738  0.362  1.04  -0.0637  0.465  -0.607 -0.0931
##  7 -0.472 -0.118  -1.05  -0.458  0.509 -0.285   0.116  -0.844 -0.327 
##  8 -0.485  0.261  -0.661 -0.0810 0.921  0.0145  0.427  -0.213  0.231 
##  9 -0.438  0.527  -1.11   0.0971 0.720  0.191   0.186  -0.219  0.196 
## 10 -0.919 -0.480  -1.01  -0.170  0.814 -0.407   0.0552 -0.684 -0.441 
## # ... with 70 more rows, and 4 more variables: V10 <dbl>, V11 <dbl>,
## #   RegionID <int>, Direction <fct>
…
    test_df %>%
      select(observed_label = Direction) %>%
      mutate(fold=fold_number) %>%
      mutate(prob_positive_rf1 = predict(rf1, newdata=test_df, type="prob")[,"up"]) %>%
      # add predicted labels for rf1 using a 0.5 probability cutoff
      mutate(predicted_label_rf1 = ifelse(prob_positive_rf1 > 0.5, "up", "down")) %>%
      mutate(prob_positive_rf2 = predict(rf2, newdata=test_df, type="prob")[, "up"]) %>%
      # add predicted labels for rf2 using a 0.5 probability cutoff
      mutate(predicted_label_rf2 = ifelse(prob_positive_rf2 > 0.5, "up", "down"))
}) %>%
  # combine the five result data frames into one
  purrr::reduce(bind_rows)
result_df

## # A tibble: 80 x 6
##    observed_label fold  prob_positive_r predicted_label prob_positive_r
##    <fct>          <chr>            <dbl> <chr>                       <dbl>
##  1 down           Fold1            0.542 up                            0.4
##  2 down           Fold1            0.652 up                            0.8
##  3 down           Fold1            0.62  up                            0.6
##  4 up             Fold1            0.708 up                            0.8
##  5 down           Fold1            0.756 up                            0.8
##  6 up             Fold1            0.636 up                            0.8
##  7 up             Fold1            0.522 up                            0.4
##  8 up             Fold1            0.772 up                            1  
##  9 up             Fold1            0.66  up                            0.7
## 10 up             Fold1            0.474 down                          0.4
## # ... with 70 more rows, and 1 more variable: predicted_label_rf2 <chr>
…
